^F:\WIGOS\SRC\WGC-REFACTOR\WIGOS SYSTEM\WGC\KERNEL\DEVICES\MCW_MODEL_001\MCW_MODEL_001.CPP|F:\WIGOS\SRC\WGC-REFACTOR\WIGOS SYSTEM\WGC\KERNEL\DEVICES\MCW_MODEL_001\MCW_MODEL_001_LOGIC.CPP|F:\WIGOS\SRC\WGC-REFACTOR\WIGOS SYSTEM\WGC\KERNEL\DEVICES\MCW_MODEL_001\MCW_MODEL_001_SERIAL.CPP
F:\WIGOS\SRC\WGC-REFACTOR\WIGOS SYSTEM\WGC\KERNEL\DEVICES\MCW_MODEL_001\DEBUG\VC120.PDB
F:\WIGOS\SRC\WGC-REFACTOR\WIGOS SYSTEM\WGC\KERNEL\DEVICES\MCW_MODEL_001\DEBUG\MCW_MODEL_001_SERIAL.OBJ
F:\WIGOS\SRC\WGC-REFACTOR\WIGOS SYSTEM\WGC\KERNEL\DEVICES\MCW_MODEL_001\DEBUG\MCW_MODEL_001_LOGIC.OBJ
F:\WIGOS\SRC\WGC-REFACTOR\WIGOS SYSTEM\WGC\KERNEL\DEVICES\MCW_MODEL_001\DEBUG\MCW_MODEL_001.OBJ
^F:\WIGOS\SRC\WGC-REFACTOR\WIGOS SYSTEM\WGC\KERNEL\DEVICES\MCW_MODEL_001\MCW_MODEL_001.CPP
F:\WIGOS\SRC\WGC-REFACTOR\WIGOS SYSTEM\WGC\KERNEL\DEVICES\MCW_MODEL_001\DEBUG\VC120.PDB
^F:\WIGOS\SRC\WGC-REFACTOR\WIGOS SYSTEM\WGC\KERNEL\DEVICES\MCW_MODEL_001\MCW_MODEL_001_LOGIC.CPP
F:\WIGOS\SRC\WGC-REFACTOR\WIGOS SYSTEM\WGC\KERNEL\DEVICES\MCW_MODEL_001\DEBUG\VC120.PDB
^F:\WIGOS\SRC\WGC-REFACTOR\WIGOS SYSTEM\WGC\KERNEL\DEVICES\MCW_MODEL_001\MCW_MODEL_001_SERIAL.CPP
F:\WIGOS\SRC\WGC-REFACTOR\WIGOS SYSTEM\WGC\KERNEL\DEVICES\MCW_MODEL_001\DEBUG\VC120.PDB
