^F:\WIGOS\SRC\WGC-REFACTOR\CLIENT_00\WGC\LANGUAGE\NLS_010\NLS_CLIENT.CPP
/c /I"..\..\..\..\Wigos System\WGC\Common\include" /I"..\..\..\..\Wigos System\Common\include" /Zi /nologo /W3 /WX- /Od /Oy- /D WIN32 /D _DEBUG /D _WINDOWS /D _USRDLL /D NLS_CLIENT_EXPORTS /D _VC80_UPGRADE=0x0710 /D _WINDLL /D _MBCS /Gm- /EHsc /RTC1 /MD /Zp1 /GS /fp:precise /Zc:wchar_t /Zc:forScope /Fo".\DEBUG/" /Fd".\DEBUG/VC120.PDB" /Gd /TP /analyze- F:\WIGOS\SRC\WGC-REFACTOR\CLIENT_00\WGC\LANGUAGE\NLS_010\NLS_CLIENT.CPP
^F:\WIGOS\SRC\WGC-REFACTOR\CLIENT_00\WGC\LANGUAGE\NLS_010\NLS_COMMON.CPP
/c /I"..\..\..\..\Wigos System\WGC\Common\include" /I"..\..\..\..\Wigos System\Common\include" /Zi /nologo /W3 /WX- /Od /Oy- /D WIN32 /D _DEBUG /D _WINDOWS /D _USRDLL /D NLS_CLIENT_EXPORTS /D _VC80_UPGRADE=0x0710 /D _WINDLL /D _MBCS /Gm- /EHsc /RTC1 /MD /Zp1 /GS /fp:precise /Zc:wchar_t /Zc:forScope /Fo".\DEBUG/" /Fd".\DEBUG/VC120.PDB" /Gd /TP /analyze- F:\WIGOS\SRC\WGC-REFACTOR\CLIENT_00\WGC\LANGUAGE\NLS_010\NLS_COMMON.CPP
