^F:\WIGOS\SRC\WGC-REFACTOR\WIGOS SYSTEM\WGC\KERNEL\COMMON_API\COMMON_API.CPP
F:\WIGOS\SRC\WGC-REFACTOR\WIGOS SYSTEM\WGC\KERNEL\COMMON_API\DEBUG\VC120.PDB
F:\WIGOS\SRC\WGC-REFACTOR\WIGOS SYSTEM\WGC\KERNEL\COMMON_API\DEBUG\COMMON_API.OBJ
