^F:\WIGOS\SRC\WGC-REFACTOR\WIGOS SYSTEM\WGC\COMMON\LIB\COMMONBASE.LIB|F:\WIGOS\SRC\WGC-REFACTOR\WIGOS SYSTEM\WGC\COMMON\LIB\COMMONBASE.LIB|F:\WIGOS\SRC\WGC-REFACTOR\WIGOS SYSTEM\WGC\COMMON\LIB\COMMONMISC.LIB|F:\WIGOS\SRC\WGC-REFACTOR\WIGOS SYSTEM\WGC\COMMON\LIB\COMMONMISC.LIB|F:\WIGOS\SRC\WGC-REFACTOR\WIGOS SYSTEM\WGC\COMMON\LIB\IPC_API.LIB|F:\WIGOS\SRC\WGC-REFACTOR\WIGOS SYSTEM\WGC\COMMON\LIB\IPC_API.LIB|F:\WIGOS\SRC\WGC-REFACTOR\WIGOS SYSTEM\WGC\COMMON\LIB\LICENSE.LIB|F:\WIGOS\SRC\WGC-REFACTOR\WIGOS SYSTEM\WGC\COMMON\LIB\LICENSE.LIB|F:\WIGOS\SRC\WGC-REFACTOR\WIGOS SYSTEM\WGC\COMMON\LIB\NLS_API.LIB|F:\WIGOS\SRC\WGC-REFACTOR\WIGOS SYSTEM\WGC\COMMON\LIB\NLS_API.LIB|F:\WIGOS\SRC\WGC-REFACTOR\WIGOS SYSTEM\WGC\COMMON\LIB\PRIVATELOG.LIB|F:\WIGOS\SRC\WGC-REFACTOR\WIGOS SYSTEM\WGC\COMMON\LIB\PRIVATELOG.LIB|F:\WIGOS\SRC\WGC-REFACTOR\WIGOS SYSTEM\WGC\COMMON\LIB\SERVICE.LIB|F:\WIGOS\SRC\WGC-REFACTOR\WIGOS SYSTEM\WGC\COMMON\LIB\SERVICE.LIB|F:\WIGOS\SRC\WGC-REFACTOR\WIGOS SYSTEM\WGC\COMMON\LIB\VERSIONCONTROL.LIB|F:\WIGOS\SRC\WGC-REFACTOR\WIGOS SYSTEM\WGC\COMMON\LIB\VERSIONCONTROL.LIB|F:\WIGOS\SRC\WGC-REFACTOR\WIGOS SYSTEM\WGC\COMMON\LIB\WATCHDOG_API.LIB|F:\WIGOS\SRC\WGC-REFACTOR\WIGOS SYSTEM\WGC\COMMON\LIB\WATCHDOG_API.LIB|F:\WIGOS\SRC\WGC-REFACTOR\WIGOS SYSTEM\WGC\KERNEL\APPLICATIONLOG\DEBUG\APPLOG.OBJ|F:\WIGOS\SRC\WGC-REFACTOR\WIGOS SYSTEM\WGC\KERNEL\APPLICATIONLOG\DEBUG\APPLOG.RES|F:\WIGOS\SRC\WGC-REFACTOR\WIGOS SYSTEM\WGC\KERNEL\APPLICATIONLOG\DEBUG\APPLOGFILE.OBJ|F:\WIGOS\SRC\WGC-REFACTOR\WIGOS SYSTEM\WGC\KERNEL\APPLICATIONLOG\DEBUG\APPLOGIPC.OBJ|F:\WIGOS\SRC\WGC-REFACTOR\WIGOS SYSTEM\WGC\KERNEL\APPLICATIONLOG\DEBUG\APPLOGSERVICE.OBJ|F:\WIGOS\SRC\WGC-REFACTOR\WIGOS SYSTEM\WGC\KERNEL\APPLICATIONLOG\DEBUG\APPLOGTIMER.OBJ
F:\WIGOS\SRC\WGC-REFACTOR\WIGOS SYSTEM\WGC\KERNEL\APPLICATIONLOG\DEBUG\SERVICE_APPLOG.EXE
F:\WIGOS\SRC\WGC-REFACTOR\WIGOS SYSTEM\WGC\KERNEL\APPLICATIONLOG\DEBUG\SERVICE_APPLOG.PDB
