^F:\WIGOS\SRC\WGC-REFACTOR\CLIENT_00\WGC\LANGUAGE\NLS_012\NLS_CLIENT.CPP|F:\WIGOS\SRC\WGC-REFACTOR\CLIENT_00\WGC\LANGUAGE\NLS_012\NLS_COMMON.CPP
F:\WIGOS\SRC\WGC-REFACTOR\CLIENT_00\WGC\LANGUAGE\NLS_012\DEBUG\VC120.PDB
F:\WIGOS\SRC\WGC-REFACTOR\CLIENT_00\WGC\LANGUAGE\NLS_012\DEBUG\NLS_COMMON.OBJ
F:\WIGOS\SRC\WGC-REFACTOR\CLIENT_00\WGC\LANGUAGE\NLS_012\DEBUG\NLS_CLIENT.OBJ
^F:\WIGOS\SRC\WGC-REFACTOR\CLIENT_00\WGC\LANGUAGE\NLS_012\NLS_CLIENT.CPP
F:\WIGOS\SRC\WGC-REFACTOR\CLIENT_00\WGC\LANGUAGE\NLS_012\DEBUG\VC120.PDB
^F:\WIGOS\SRC\WGC-REFACTOR\CLIENT_00\WGC\LANGUAGE\NLS_012\NLS_COMMON.CPP
F:\WIGOS\SRC\WGC-REFACTOR\CLIENT_00\WGC\LANGUAGE\NLS_012\DEBUG\VC120.PDB
