^F:\WIGOS\SRC\WGC-REFACTOR\WIGOS SYSTEM\WGC\KERNEL\COMMONBASE\COMMONBASE.CPP|F:\WIGOS\SRC\WGC-REFACTOR\WIGOS SYSTEM\WGC\KERNEL\COMMONBASE\COMMONBASECONFIG.CPP|F:\WIGOS\SRC\WGC-REFACTOR\WIGOS SYSTEM\WGC\KERNEL\COMMONBASE\COMMONBASEDATES.CPP|F:\WIGOS\SRC\WGC-REFACTOR\WIGOS SYSTEM\WGC\KERNEL\COMMONBASE\COMMONBASEFTP.CPP|F:\WIGOS\SRC\WGC-REFACTOR\WIGOS SYSTEM\WGC\KERNEL\COMMONBASE\COMMONBASEGETPASSWORD.CPP|F:\WIGOS\SRC\WGC-REFACTOR\WIGOS SYSTEM\WGC\KERNEL\COMMONBASE\COMMONBASEMATH.CPP|F:\WIGOS\SRC\WGC-REFACTOR\WIGOS SYSTEM\WGC\KERNEL\COMMONBASE\COMMONBASENUMBERS.CPP|F:\WIGOS\SRC\WGC-REFACTOR\WIGOS SYSTEM\WGC\KERNEL\COMMONBASE\COMMONBASEREGISTRY.CPP|F:\WIGOS\SRC\WGC-REFACTOR\WIGOS SYSTEM\WGC\KERNEL\COMMONBASE\COMMONBASESWPACKAGE.CPP|F:\WIGOS\SRC\WGC-REFACTOR\WIGOS SYSTEM\WGC\KERNEL\COMMONBASE\COMMONBASEVERSION.CPP|F:\WIGOS\SRC\WGC-REFACTOR\WIGOS SYSTEM\WGC\KERNEL\COMMONBASE\COMMONBASEWIDECHARS.CPP|F:\WIGOS\SRC\WGC-REFACTOR\WIGOS SYSTEM\WGC\KERNEL\COMMONBASE\COMMONTHREAD.CPP|F:\WIGOS\SRC\WGC-REFACTOR\WIGOS SYSTEM\WGC\KERNEL\COMMONBASE\COMMONTIMEZONE.CPP
F:\WIGOS\SRC\WGC-REFACTOR\WIGOS SYSTEM\WGC\KERNEL\COMMONBASE\DEBUG\VC120.PDB
F:\WIGOS\SRC\WGC-REFACTOR\WIGOS SYSTEM\WGC\KERNEL\COMMONBASE\DEBUG\COMMONTIMEZONE.OBJ
F:\WIGOS\SRC\WGC-REFACTOR\WIGOS SYSTEM\WGC\KERNEL\COMMONBASE\DEBUG\COMMONTHREAD.OBJ
F:\WIGOS\SRC\WGC-REFACTOR\WIGOS SYSTEM\WGC\KERNEL\COMMONBASE\DEBUG\COMMONBASEWIDECHARS.OBJ
F:\WIGOS\SRC\WGC-REFACTOR\WIGOS SYSTEM\WGC\KERNEL\COMMONBASE\DEBUG\COMMONBASEVERSION.OBJ
F:\WIGOS\SRC\WGC-REFACTOR\WIGOS SYSTEM\WGC\KERNEL\COMMONBASE\DEBUG\COMMONBASESWPACKAGE.OBJ
F:\WIGOS\SRC\WGC-REFACTOR\WIGOS SYSTEM\WGC\KERNEL\COMMONBASE\DEBUG\COMMONBASEREGISTRY.OBJ
F:\WIGOS\SRC\WGC-REFACTOR\WIGOS SYSTEM\WGC\KERNEL\COMMONBASE\DEBUG\COMMONBASENUMBERS.OBJ
F:\WIGOS\SRC\WGC-REFACTOR\WIGOS SYSTEM\WGC\KERNEL\COMMONBASE\DEBUG\COMMONBASEMATH.OBJ
F:\WIGOS\SRC\WGC-REFACTOR\WIGOS SYSTEM\WGC\KERNEL\COMMONBASE\DEBUG\COMMONBASEGETPASSWORD.OBJ
F:\WIGOS\SRC\WGC-REFACTOR\WIGOS SYSTEM\WGC\KERNEL\COMMONBASE\DEBUG\COMMONBASEFTP.OBJ
F:\WIGOS\SRC\WGC-REFACTOR\WIGOS SYSTEM\WGC\KERNEL\COMMONBASE\DEBUG\COMMONBASEDATES.OBJ
F:\WIGOS\SRC\WGC-REFACTOR\WIGOS SYSTEM\WGC\KERNEL\COMMONBASE\DEBUG\COMMONBASECONFIG.OBJ
F:\WIGOS\SRC\WGC-REFACTOR\WIGOS SYSTEM\WGC\KERNEL\COMMONBASE\DEBUG\COMMONBASE.OBJ
^F:\WIGOS\SRC\WGC-REFACTOR\WIGOS SYSTEM\WGC\KERNEL\COMMONBASE\COMMONBASE.CPP
F:\WIGOS\SRC\WGC-REFACTOR\WIGOS SYSTEM\WGC\KERNEL\COMMONBASE\DEBUG\VC120.PDB
^F:\WIGOS\SRC\WGC-REFACTOR\WIGOS SYSTEM\WGC\KERNEL\COMMONBASE\COMMONBASECONFIG.CPP
F:\WIGOS\SRC\WGC-REFACTOR\WIGOS SYSTEM\WGC\KERNEL\COMMONBASE\DEBUG\VC120.PDB
^F:\WIGOS\SRC\WGC-REFACTOR\WIGOS SYSTEM\WGC\KERNEL\COMMONBASE\COMMONBASEDATES.CPP
F:\WIGOS\SRC\WGC-REFACTOR\WIGOS SYSTEM\WGC\KERNEL\COMMONBASE\DEBUG\VC120.PDB
^F:\WIGOS\SRC\WGC-REFACTOR\WIGOS SYSTEM\WGC\KERNEL\COMMONBASE\COMMONBASEFTP.CPP
F:\WIGOS\SRC\WGC-REFACTOR\WIGOS SYSTEM\WGC\KERNEL\COMMONBASE\DEBUG\VC120.PDB
^F:\WIGOS\SRC\WGC-REFACTOR\WIGOS SYSTEM\WGC\KERNEL\COMMONBASE\COMMONBASEGETPASSWORD.CPP
F:\WIGOS\SRC\WGC-REFACTOR\WIGOS SYSTEM\WGC\KERNEL\COMMONBASE\DEBUG\VC120.PDB
^F:\WIGOS\SRC\WGC-REFACTOR\WIGOS SYSTEM\WGC\KERNEL\COMMONBASE\COMMONBASEMATH.CPP
F:\WIGOS\SRC\WGC-REFACTOR\WIGOS SYSTEM\WGC\KERNEL\COMMONBASE\DEBUG\VC120.PDB
^F:\WIGOS\SRC\WGC-REFACTOR\WIGOS SYSTEM\WGC\KERNEL\COMMONBASE\COMMONBASENUMBERS.CPP
F:\WIGOS\SRC\WGC-REFACTOR\WIGOS SYSTEM\WGC\KERNEL\COMMONBASE\DEBUG\VC120.PDB
^F:\WIGOS\SRC\WGC-REFACTOR\WIGOS SYSTEM\WGC\KERNEL\COMMONBASE\COMMONBASEREGISTRY.CPP
F:\WIGOS\SRC\WGC-REFACTOR\WIGOS SYSTEM\WGC\KERNEL\COMMONBASE\DEBUG\VC120.PDB
^F:\WIGOS\SRC\WGC-REFACTOR\WIGOS SYSTEM\WGC\KERNEL\COMMONBASE\COMMONBASESWPACKAGE.CPP
F:\WIGOS\SRC\WGC-REFACTOR\WIGOS SYSTEM\WGC\KERNEL\COMMONBASE\DEBUG\VC120.PDB
^F:\WIGOS\SRC\WGC-REFACTOR\WIGOS SYSTEM\WGC\KERNEL\COMMONBASE\COMMONBASEVERSION.CPP
F:\WIGOS\SRC\WGC-REFACTOR\WIGOS SYSTEM\WGC\KERNEL\COMMONBASE\DEBUG\VC120.PDB
^F:\WIGOS\SRC\WGC-REFACTOR\WIGOS SYSTEM\WGC\KERNEL\COMMONBASE\COMMONBASEWIDECHARS.CPP
F:\WIGOS\SRC\WGC-REFACTOR\WIGOS SYSTEM\WGC\KERNEL\COMMONBASE\DEBUG\VC120.PDB
^F:\WIGOS\SRC\WGC-REFACTOR\WIGOS SYSTEM\WGC\KERNEL\COMMONBASE\COMMONTHREAD.CPP
F:\WIGOS\SRC\WGC-REFACTOR\WIGOS SYSTEM\WGC\KERNEL\COMMONBASE\DEBUG\VC120.PDB
^F:\WIGOS\SRC\WGC-REFACTOR\WIGOS SYSTEM\WGC\KERNEL\COMMONBASE\COMMONTIMEZONE.CPP
F:\WIGOS\SRC\WGC-REFACTOR\WIGOS SYSTEM\WGC\KERNEL\COMMONBASE\DEBUG\VC120.PDB
