^F:\WIGOS\SRC\WGC-REFACTOR\WIGOS SYSTEM\WGC\COMMON\LIB\PRIVATELOG.LIB|F:\WIGOS\SRC\WGC-REFACTOR\WIGOS SYSTEM\WGC\COMMON\LIB\PRIVATELOG.LIB|F:\WIGOS\SRC\WGC-REFACTOR\WIGOS SYSTEM\WGC\COMMON\LIB\VERSIONCONTROL.LIB|F:\WIGOS\SRC\WGC-REFACTOR\WIGOS SYSTEM\WGC\COMMON\LIB\VERSIONCONTROL.LIB|F:\WIGOS\SRC\WGC-REFACTOR\WIGOS SYSTEM\WGC\KERNEL\COMMONBASE\DEBUG\COMMONBASE.OBJ|F:\WIGOS\SRC\WGC-REFACTOR\WIGOS SYSTEM\WGC\KERNEL\COMMONBASE\DEBUG\COMMONBASE.RES|F:\WIGOS\SRC\WGC-REFACTOR\WIGOS SYSTEM\WGC\KERNEL\COMMONBASE\DEBUG\COMMONBASECONFIG.OBJ|F:\WIGOS\SRC\WGC-REFACTOR\WIGOS SYSTEM\WGC\KERNEL\COMMONBASE\DEBUG\COMMONBASEDATES.OBJ|F:\WIGOS\SRC\WGC-REFACTOR\WIGOS SYSTEM\WGC\KERNEL\COMMONBASE\DEBUG\COMMONBASEFTP.OBJ|F:\WIGOS\SRC\WGC-REFACTOR\WIGOS SYSTEM\WGC\KERNEL\COMMONBASE\DEBUG\COMMONBASEGETPASSWORD.OBJ|F:\WIGOS\SRC\WGC-REFACTOR\WIGOS SYSTEM\WGC\KERNEL\COMMONBASE\DEBUG\COMMONBASEMATH.OBJ|F:\WIGOS\SRC\WGC-REFACTOR\WIGOS SYSTEM\WGC\KERNEL\COMMONBASE\DEBUG\COMMONBASENUMBERS.OBJ|F:\WIGOS\SRC\WGC-REFACTOR\WIGOS SYSTEM\WGC\KERNEL\COMMONBASE\DEBUG\COMMONBASEREGISTRY.OBJ|F:\WIGOS\SRC\WGC-REFACTOR\WIGOS SYSTEM\WGC\KERNEL\COMMONBASE\DEBUG\COMMONBASESWPACKAGE.OBJ|F:\WIGOS\SRC\WGC-REFACTOR\WIGOS SYSTEM\WGC\KERNEL\COMMONBASE\DEBUG\COMMONBASEVERSION.OBJ|F:\WIGOS\SRC\WGC-REFACTOR\WIGOS SYSTEM\WGC\KERNEL\COMMONBASE\DEBUG\COMMONBASEWIDECHARS.OBJ|F:\WIGOS\SRC\WGC-REFACTOR\WIGOS SYSTEM\WGC\KERNEL\COMMONBASE\DEBUG\COMMONTHREAD.OBJ|F:\WIGOS\SRC\WGC-REFACTOR\WIGOS SYSTEM\WGC\KERNEL\COMMONBASE\DEBUG\COMMONTIMEZONE.OBJ
C:\PROGRAM FILES (X86)\WINDOWS KITS\8.1\LIB\WINV6.3\UM\X86\VERSION.LIB
C:\PROGRAM FILES (X86)\WINDOWS KITS\8.1\LIB\WINV6.3\UM\X86\WININET.LIB
C:\PROGRAM FILES (X86)\WINDOWS KITS\8.1\LIB\WINV6.3\UM\X86\KERNEL32.LIB
C:\PROGRAM FILES (X86)\WINDOWS KITS\8.1\LIB\WINV6.3\UM\X86\USER32.LIB
C:\PROGRAM FILES (X86)\WINDOWS KITS\8.1\LIB\WINV6.3\UM\X86\GDI32.LIB
C:\PROGRAM FILES (X86)\WINDOWS KITS\8.1\LIB\WINV6.3\UM\X86\WINSPOOL.LIB
C:\PROGRAM FILES (X86)\WINDOWS KITS\8.1\LIB\WINV6.3\UM\X86\COMDLG32.LIB
C:\PROGRAM FILES (X86)\WINDOWS KITS\8.1\LIB\WINV6.3\UM\X86\ADVAPI32.LIB
C:\PROGRAM FILES (X86)\WINDOWS KITS\8.1\LIB\WINV6.3\UM\X86\SHELL32.LIB
C:\PROGRAM FILES (X86)\WINDOWS KITS\8.1\LIB\WINV6.3\UM\X86\OLE32.LIB
C:\PROGRAM FILES (X86)\WINDOWS KITS\8.1\LIB\WINV6.3\UM\X86\OLEAUT32.LIB
C:\PROGRAM FILES (X86)\WINDOWS KITS\8.1\LIB\WINV6.3\UM\X86\UUID.LIB
C:\PROGRAM FILES (X86)\WINDOWS KITS\8.1\LIB\WINV6.3\UM\X86\ODBC32.LIB
C:\PROGRAM FILES (X86)\WINDOWS KITS\8.1\LIB\WINV6.3\UM\X86\ODBCCP32.LIB
F:\WIGOS\SRC\WGC-REFACTOR\WIGOS SYSTEM\WGC\KERNEL\COMMONBASE\DEBUG\COMMONBASE.RES
F:\WIGOS\SRC\WGC-REFACTOR\WIGOS SYSTEM\WGC\KERNEL\COMMONBASE\DEBUG\COMMONBASE.OBJ
F:\WIGOS\SRC\WGC-REFACTOR\WIGOS SYSTEM\WGC\KERNEL\COMMONBASE\DEBUG\COMMONBASECONFIG.OBJ
F:\WIGOS\SRC\WGC-REFACTOR\WIGOS SYSTEM\WGC\KERNEL\COMMONBASE\DEBUG\COMMONBASEDATES.OBJ
F:\WIGOS\SRC\WGC-REFACTOR\WIGOS SYSTEM\WGC\KERNEL\COMMONBASE\DEBUG\COMMONBASEFTP.OBJ
F:\WIGOS\SRC\WGC-REFACTOR\WIGOS SYSTEM\WGC\KERNEL\COMMONBASE\DEBUG\COMMONBASEGETPASSWORD.OBJ
F:\WIGOS\SRC\WGC-REFACTOR\WIGOS SYSTEM\WGC\KERNEL\COMMONBASE\DEBUG\COMMONBASEMATH.OBJ
F:\WIGOS\SRC\WGC-REFACTOR\WIGOS SYSTEM\WGC\KERNEL\COMMONBASE\DEBUG\COMMONBASENUMBERS.OBJ
F:\WIGOS\SRC\WGC-REFACTOR\WIGOS SYSTEM\WGC\KERNEL\COMMONBASE\DEBUG\COMMONBASEREGISTRY.OBJ
F:\WIGOS\SRC\WGC-REFACTOR\WIGOS SYSTEM\WGC\KERNEL\COMMONBASE\DEBUG\COMMONBASESWPACKAGE.OBJ
F:\WIGOS\SRC\WGC-REFACTOR\WIGOS SYSTEM\WGC\KERNEL\COMMONBASE\DEBUG\COMMONBASEVERSION.OBJ
F:\WIGOS\SRC\WGC-REFACTOR\WIGOS SYSTEM\WGC\KERNEL\COMMONBASE\DEBUG\COMMONBASEWIDECHARS.OBJ
F:\WIGOS\SRC\WGC-REFACTOR\WIGOS SYSTEM\WGC\KERNEL\COMMONBASE\DEBUG\COMMONTHREAD.OBJ
F:\WIGOS\SRC\WGC-REFACTOR\WIGOS SYSTEM\WGC\KERNEL\COMMONBASE\DEBUG\COMMONTIMEZONE.OBJ
F:\WIGOS\SRC\WGC-REFACTOR\WIGOS SYSTEM\WGC\COMMON\LIB\PRIVATELOG.LIB
F:\WIGOS\SRC\WGC-REFACTOR\WIGOS SYSTEM\WGC\COMMON\LIB\VERSIONCONTROL.LIB
C:\WINDOWS\GLOBALIZATION\SORTING\SORTDEFAULT.NLS
C:\PROGRAM FILES (X86)\MICROSOFT VISUAL STUDIO 12.0\VC\LIB\MSVCRT.LIB
C:\PROGRAM FILES (X86)\MICROSOFT VISUAL STUDIO 12.0\VC\LIB\OLDNAMES.LIB
F:\WIGOS\SRC\WGC-REFACTOR\WIGOS SYSTEM\WGC\KERNEL\COMMONBASE\COMMONBASE.DEF
C:\WINDOWS\SYSTEM32\TZRES.DLL
C:\PROGRAM FILES (X86)\MICROSOFT VISUAL STUDIO 12.0\VC\BIN\1033\LINKUI.DLL
C:\PROGRAM FILES (X86)\WINDOWS KITS\8.1\BIN\X86\RC.EXE
C:\PROGRAM FILES (X86)\MICROSOFT VISUAL STUDIO 12.0\VC\BIN\CVTRES.EXE
