<?xml version="1.0" encoding="UTF-8" standalone="no"?>
<svg width="12px" height="12px" viewBox="0 0 12 12" version="1.1" xmlns="http://www.w3.org/2000/svg" xmlns:xlink="http://www.w3.org/1999/xlink" xmlns:sketch="http://www.bohemiancoding.com/sketch/ns">
    <!-- Generator: Sketch 3.4.4 (17249) - http://www.bohemiancoding.com/sketch -->
    <title>Oval 1 + Oval 1 Copy 4</title>
    <desc>Created with Sketch.</desc>
    <defs></defs>
    <g id="Page-1" stroke="none" stroke-width="1" fill="none" fill-rule="evenodd" sketch:type="MSPage">
        <g id="Mobile-Portrait" sketch:type="MSArtboardGroup" transform="translate(-157.000000, -165.000000)">
            <g id="Oval-1-+-Oval-1-Copy-4" sketch:type="MSLayerGroup" transform="translate(158.000000, 166.000000)">
                <path d="M5,8 C6.65685425,8 8,6.65685425 8,5 C8,3.34314575 6.65685425,2 5,2 C3.34314575,2 2,3.34314575 2,5 C2,6.65685425 3.34314575,8 5,8 Z" id="Oval-1" fill="#999999" sketch:type="MSShapeGroup"></path>
                <circle id="Oval-1" stroke="#999999" sketch:type="MSShapeGroup" cx="5" cy="5" r="5"></circle>
            </g>
        </g>
    </g>
</svg>