<?xml version="1.0" encoding="UTF-8" standalone="no"?>
<svg width="12px" height="12px" viewBox="0 0 12 12" version="1.1" xmlns="http://www.w3.org/2000/svg" xmlns:xlink="http://www.w3.org/1999/xlink" xmlns:sketch="http://www.bohemiancoding.com/sketch/ns">
    <!-- Generator: Sketch 3.4.4 (17249) - http://www.bohemiancoding.com/sketch -->
    <title>Oval 1 + Oval 1</title>
    <desc>Created with Sketch.</desc>
    <defs></defs>
    <g id="Page-1" stroke="none" stroke-width="1" fill="none" fill-rule="evenodd" sketch:type="MSPage">
        <g id="Mobile-Portrait" sketch:type="MSArtboardGroup" transform="translate(-97.000000, -146.000000)">
            <g id="Oval-1-+-Oval-1" sketch:type="MSLayerGroup" transform="translate(98.000000, 147.000000)">
                <circle id="Oval-1" fill="#E2232E" sketch:type="MSShapeGroup" cx="5" cy="5" r="3"></circle>
                <circle id="Oval-1" stroke="#E2232E" sketch:type="MSShapeGroup" cx="5" cy="5" r="5"></circle>
            </g>
        </g>
    </g>
</svg>