<?xml version="1.0" encoding="utf-8"?>
<!-- Generator: Adobe Illustrator 16.0.0, SVG Export Plug-In . SVG Version: 6.00 Build 0)  -->
<!DOCTYPE svg PUBLIC "-//W3C//DTD SVG 1.1//EN" "http://www.w3.org/Graphics/SVG/1.1/DTD/svg11.dtd">
<svg version="1.1" id="Layer_1" xmlns="http://www.w3.org/2000/svg" xmlns:xlink="http://www.w3.org/1999/xlink" x="0px" y="0px"
	 width="52px" height="56px" viewBox="-11 -13 52 56" enable-background="new -11 -13 52 56" xml:space="preserve">
<g>
	<circle fill="#2D7C31" cx="15" cy="15" r="23.74"/>
	<g>
		<path fill="none" stroke="#F2F2F2" stroke-width="1.5101" stroke-miterlimit="10" d="M8.961,8.019L9.003,7.98
			c0.185-0.118,0.271-0.305,0.241-0.499C8.792,5.065,9.089,4.064,9.189,3.81c0.788-2.155,3.253-3.151,3.739-3.327
			c0.108-0.035,0.297-0.09,0.489-0.113l0.064-0.014l0.391-0.02l0.003,0.021l0.093-0.008c0.081-0.003,0.158-0.017,0.258-0.036
			l0.09-0.016c0.072,0.001,1.039,0.109,2.469,0.499l0.988,0.305c1.821,0.479,2.653,1.368,2.811,1.548
			c1.451,1.469,1.063,3.688,0.701,4.876c-0.039,0.142-0.015,0.284,0.072,0.405l0.079,0.089c0.11,0.129,0.205,0.62-0.108,1.666
			c-0.06,0.317-0.191,0.577-0.389,0.749c-0.072,0.069-0.12,0.162-0.142,0.262c-0.491,2.569-3.076,5.439-5.8,5.439
			c-2.303,0-4.94-2.64-5.41-5.436c-0.024-0.104-0.067-0.198-0.148-0.277C9.243,10.24,9.115,9.977,9.037,9.588
			C8.808,8.858,8.784,8.269,8.961,8.019z"/>
		<path fill="none" stroke="#F2F2F2" stroke-width="1.5101" stroke-miterlimit="10" d="M3.782,21.265
			c0.095-0.11,0.656-0.695,1.782-1.079c0.995-0.27,3.448-0.998,4.789-1.864c0.063-0.03,0.126-0.089,0.179-0.136
			c0.123-0.121,0.312-0.303,0.534-0.487l0.127-0.104l0.129,0.104c1.183,0.995,2.485,1.537,3.674,1.537
			c1.258,0,2.548-0.479,3.745-1.398l0.094-0.072l0.252,0.11c0.229,0.183,0.619,0.438,0.806,0.514l0.23,0.104l-0.026,0.023
			l0.104,0.056c0.221,0.119,0.459,0.234,0.739,0.357c0.283,0.11,0.522,0.193,0.771,0.266c0.208,0.06,1.302,0.392,2.565,0.909
			l0.242,0.062c1.226,0.419,1.775,1.003,1.828,1.064c1.452,1.928,2.015,5.519,2.223,7.521c-3.217,3.275-8.441,5.384-13.338,5.384
			c-4.896,0-10.459-2.049-13.652-5.387C1.787,26.754,2.342,23.174,3.782,21.265z"/>
	</g>
</g>
</svg>
