^F:\WIGOS\SRC\WGC-REFACTOR\WIGOS SYSTEM\WGC\COMMON\LIB\PRIVATELOG.LIB|F:\WIGOS\SRC\WGC-REFACTOR\WIGOS SYSTEM\WGC\COMMON\LIB\PRIVATELOG.LIB|F:\WIGOS\SRC\WGC-REFACTOR\WIGOS SYSTEM\WGC\KERNEL\LANGUAGE\NLS_API\DEBUG\NLS_API.OBJ|F:\WIGOS\SRC\WGC-REFACTOR\WIGOS SYSTEM\WGC\KERNEL\LANGUAGE\NLS_API\DEBUG\NLS_API.RES
C:\PROGRAM FILES (X86)\WINDOWS KITS\8.1\LIB\WINV6.3\UM\X86\KERNEL32.LIB
C:\PROGRAM FILES (X86)\WINDOWS KITS\8.1\LIB\WINV6.3\UM\X86\USER32.LIB
C:\PROGRAM FILES (X86)\WINDOWS KITS\8.1\LIB\WINV6.3\UM\X86\GDI32.LIB
C:\PROGRAM FILES (X86)\WINDOWS KITS\8.1\LIB\WINV6.3\UM\X86\WINSPOOL.LIB
C:\PROGRAM FILES (X86)\WINDOWS KITS\8.1\LIB\WINV6.3\UM\X86\COMDLG32.LIB
C:\PROGRAM FILES (X86)\WINDOWS KITS\8.1\LIB\WINV6.3\UM\X86\ADVAPI32.LIB
C:\PROGRAM FILES (X86)\WINDOWS KITS\8.1\LIB\WINV6.3\UM\X86\SHELL32.LIB
C:\PROGRAM FILES (X86)\WINDOWS KITS\8.1\LIB\WINV6.3\UM\X86\OLE32.LIB
C:\PROGRAM FILES (X86)\WINDOWS KITS\8.1\LIB\WINV6.3\UM\X86\OLEAUT32.LIB
C:\PROGRAM FILES (X86)\WINDOWS KITS\8.1\LIB\WINV6.3\UM\X86\UUID.LIB
C:\PROGRAM FILES (X86)\WINDOWS KITS\8.1\LIB\WINV6.3\UM\X86\ODBC32.LIB
C:\PROGRAM FILES (X86)\WINDOWS KITS\8.1\LIB\WINV6.3\UM\X86\ODBCCP32.LIB
F:\WIGOS\SRC\WGC-REFACTOR\WIGOS SYSTEM\WGC\KERNEL\LANGUAGE\NLS_API\DEBUG\NLS_API.RES
F:\WIGOS\SRC\WGC-REFACTOR\WIGOS SYSTEM\WGC\KERNEL\LANGUAGE\NLS_API\DEBUG\NLS_API.OBJ
F:\WIGOS\SRC\WGC-REFACTOR\WIGOS SYSTEM\WGC\COMMON\LIB\PRIVATELOG.LIB
C:\WINDOWS\GLOBALIZATION\SORTING\SORTDEFAULT.NLS
C:\PROGRAM FILES (X86)\MICROSOFT VISUAL STUDIO 12.0\VC\LIB\MSVCRT.LIB
C:\PROGRAM FILES (X86)\MICROSOFT VISUAL STUDIO 12.0\VC\LIB\OLDNAMES.LIB
F:\WIGOS\SRC\WGC-REFACTOR\WIGOS SYSTEM\WGC\KERNEL\LANGUAGE\NLS_API\NLS_API.DEF
C:\WINDOWS\SYSTEM32\TZRES.DLL
C:\PROGRAM FILES (X86)\MICROSOFT VISUAL STUDIO 12.0\VC\BIN\1033\LINKUI.DLL
C:\PROGRAM FILES (X86)\WINDOWS KITS\8.1\BIN\X86\RC.EXE
C:\PROGRAM FILES (X86)\MICROSOFT VISUAL STUDIO 12.0\VC\BIN\CVTRES.EXE
C:\PROGRAM FILES (X86)\MICROSOFT VISUAL STUDIO 12.0\VC\BIN\MSPDBSRV.EXE
