^F:\WIGOS\SRC\WGC-REFACTOR\WIGOS SYSTEM\WGC\KERNEL\LANGUAGE\NLS_API\NLS_API.RC
F:\WIGOS\SRC\WGC-REFACTOR\WIGOS SYSTEM\WGC\KERNEL\LANGUAGE\NLS_API\NLS_API_RESOURCES.H
C:\PROGRAM FILES (X86)\MICROSOFT VISUAL STUDIO 12.0\VC\ATLMFC\INCLUDE\AFXRES.H
C:\PROGRAM FILES (X86)\WINDOWS KITS\8.1\INCLUDE\UM\WINRES.H
C:\PROGRAM FILES (X86)\WINDOWS KITS\8.1\INCLUDE\UM\WINRESRC.H
C:\PROGRAM FILES (X86)\WINDOWS KITS\8.1\INCLUDE\UM\WINUSER.RH
C:\PROGRAM FILES (X86)\WINDOWS KITS\8.1\INCLUDE\UM\COMMCTRL.RH
C:\PROGRAM FILES (X86)\WINDOWS KITS\8.1\INCLUDE\UM\DDE.RH
C:\PROGRAM FILES (X86)\WINDOWS KITS\8.1\INCLUDE\UM\WINNT.RH
C:\PROGRAM FILES (X86)\WINDOWS KITS\8.1\INCLUDE\UM\DLGS.H
C:\PROGRAM FILES (X86)\WINDOWS KITS\8.1\INCLUDE\SHARED\WINAPIFAMILY.H
C:\PROGRAM FILES (X86)\WINDOWS KITS\8.1\INCLUDE\UM\WINVER.H
C:\PROGRAM FILES (X86)\WINDOWS KITS\8.1\INCLUDE\SHARED\SPECSTRINGS.H
C:\PROGRAM FILES (X86)\WINDOWS KITS\8.1\INCLUDE\SHARED\SAL.H
C:\PROGRAM FILES (X86)\WINDOWS KITS\8.1\INCLUDE\SHARED\CONCURRENCYSAL.H
C:\PROGRAM FILES (X86)\WINDOWS KITS\8.1\INCLUDE\SHARED\DRIVERSPECS.H
C:\PROGRAM FILES (X86)\WINDOWS KITS\8.1\INCLUDE\SHARED\SDV_DRIVERSPECS.H
C:\PROGRAM FILES (X86)\WINDOWS KITS\8.1\INCLUDE\UM\VERRSRC.H
