﻿<svg width="580" height="400" xmlns="http://www.w3.org/2000/svg">
  <g>
    <title>Piso primario</title>
  </g>
  <g>
    <title>background</title>
    <rect height="402" width="582" y="-1" x="-1" fill="#f00" id="canvas_background" />
    <g y="0" x="0" height="100%" width="100%" display="none" overflow="visible" id="canvasGrid">
      <rect height="100%" width="100%" y="0" x="0" stroke-width="0" fill="url(#gridpattern)" />
    </g>
  </g>
</svg>