<?xml version="1.0" encoding="utf-8"?>
<!-- Generator: Adobe Illustrator 16.0.0, SVG Export Plug-In . SVG Version: 6.00 Build 0)  -->
<!DOCTYPE svg PUBLIC "-//W3C//DTD SVG 1.1//EN" "http://www.w3.org/Graphics/SVG/1.1/DTD/svg11.dtd">
<svg version="1.1" id="Layer_1" xmlns="http://www.w3.org/2000/svg" xmlns:xlink="http://www.w3.org/1999/xlink" x="0px" y="0px"
	 width="30.75px" height="38.25px" viewBox="0 0 30.75 38.25" enable-background="new 0 0 30.75 38.25" xml:space="preserve">
<g>
	<path fill="none" stroke="#F3F3F3" stroke-miterlimit="10" d="M25.038,21.792v-5.559c-0.02-4.29-2.96-8.386-7.362-9.429
		c0,0-0.142-2.161-2.303-2.161c-2.195,0-2.307,2.099-2.307,2.099c-4.394,1.038-7.302,5.202-7.327,9.491v5.383
		c0,2.629-0.025,3.082-2.073,5.226h23.417C25.034,24.698,25.038,24.427,25.038,21.792z"/>
	<path fill="none" stroke="#F3F3F3" stroke-miterlimit="10" d="M20.494,28.503c0,2.817-2.284,5.104-5.101,5.104
		c-2.819,0-5.106-2.286-5.106-5.104"/>
</g>
</svg>
