<svg width="48" height="48" xmlns="http://www.w3.org/2000/svg">
 <g>
  <title>background</title>
  <rect x="-1" y="-1" width="13.99996" height="13.99996" id="canvas_background" fill="none"/>
 </g>

 <g>
  <title>Layer 1</title>
  <path fill-opacity="0.9" fill="#FFFFFF" d="m23.99,4c-11.05,0 -19.99,8.95 -19.99,20s8.94,20 19.99,20c11.05,0 20.01,-8.95 20.01,-20s-8.96,-20 -20.01,-20zm0.01,36c-8.84,0 -16,-7.16 -16,-16s7.16,-16 16,-16s16,7.16 16,16s-7.16,16 -16,16z" id="svg_1"/>
  <path d="m0,0l48,0l0,48l-48,0l0,-48z" fill="none" id="svg_2"/>
  <path d="m25,14l-3,0l0,12l10.49,6.3l1.51,-2.46l-9,-5.34l0,-10.5z" id="svg_3" fill="#FFFFFF"/>
 </g>
</svg>