<?xml version="1.0" encoding="utf-8"?>
<!-- Generator: Adobe Illustrator 16.0.0, SVG Export Plug-In . SVG Version: 6.00 Build 0)  -->
<!DOCTYPE svg PUBLIC "-//W3C//DTD SVG 1.1//EN" "http://www.w3.org/Graphics/SVG/1.1/DTD/svg11.dtd">
<svg version="1.1" id="Layer_1" xmlns="http://www.w3.org/2000/svg" xmlns:xlink="http://www.w3.org/1999/xlink" x="0px" y="0px"
	 width="36.825px" height="22.963px" viewBox="0 4.816 36.825 22.963" enable-background="new 0 4.816 36.825 22.963"
	 xml:space="preserve">
<g>
	<g>
		<polygon fill="#36464E" points="32.947,16.143 32.947,12.941 34.247,12.941 34.247,16.832 30.321,19.556 30.341,18.01 		"/>
		<circle fill="#36464E" cx="33.643" cy="10.781" r="2.159"/>
	</g>
	<path fill="none" stroke="#36464E" stroke-miterlimit="10" d="M30.238,23.635c0,0.689-0.703,1.248-1.57,1.248H3.902
		c-0.868,0-1.572-0.559-1.572-1.248V12.387c0-0.689,0.704-1.249,1.572-1.249h24.766c0.867,0,1.57,0.56,1.57,1.249V23.635z"/>
	<path fill="#36464E" d="M4.646,12.513v10.995h6.71V12.513H4.646z M10.018,17.326c0,0.285,0.008,0.318-0.22,0.514l-1.143,0.988
		c-0.212,0.188-0.229,0.205-0.229,0.49V20.9c0,0.262-0.114,0.408-0.408,0.408S7.609,21.162,7.609,20.9v-1.967
		c0-0.27,0.008-0.293,0.213-0.473l1.126-0.973C9.218,17.251,9.2,17.259,9.2,16.9v-1.127H6.803c0,0.181-0.149,0.41-0.409,0.41
		c-0.261,0-0.408-0.229-0.408-0.41v-0.407c0-0.179,0.147-0.407,0.408-0.407h3.624V17.326z"/>
	<path fill="#36464E" d="M12.722,12.513v10.995h6.71V12.513H12.722z M18.094,17.326c0,0.285,0.008,0.318-0.222,0.514l-1.141,0.988
		c-0.214,0.188-0.23,0.205-0.23,0.49V20.9c0,0.262-0.113,0.408-0.408,0.408c-0.294,0-0.407-0.146-0.407-0.408v-1.967
		c0-0.27,0.006-0.293,0.212-0.473l1.125-0.973c0.27-0.236,0.254-0.229,0.254-0.588v-1.127h-2.399c0,0.181-0.147,0.41-0.408,0.41
		c-0.262,0-0.409-0.229-0.409-0.41v-0.407c0-0.179,0.147-0.407,0.409-0.407h3.625V17.326z"/>
	<path fill="#36464E" d="M20.797,12.513v10.995h6.711V12.513H20.797z M26.169,17.326c0,0.285,0.008,0.318-0.221,0.514l-1.143,0.988
		c-0.212,0.188-0.229,0.205-0.229,0.49V20.9c0,0.262-0.114,0.408-0.408,0.408S23.76,21.162,23.76,20.9v-1.967
		c0-0.27,0.008-0.293,0.214-0.473l1.125-0.973c0.27-0.236,0.254-0.229,0.254-0.588v-1.127h-2.399c0,0.181-0.147,0.41-0.409,0.41
		c-0.261,0-0.408-0.229-0.408-0.41v-0.407c0-0.179,0.147-0.407,0.408-0.407h3.625V17.326z"/>
</g>
<circle fill="#689F38" cx="6.25" cy="21.148" r="5.792"/>
<polyline fill="none" stroke="#E3F2FD" stroke-width="0.8978" stroke-linecap="round" stroke-miterlimit="10" points="3.742,21.811 
	5.284,23.3 8.424,18.665 "/>
</svg>
