<?xml version="1.0" encoding="utf-8"?>
<!-- Generator: Adobe Illustrator 16.0.0, SVG Export Plug-In . SVG Version: 6.00 Build 0)  -->
<!DOCTYPE svg PUBLIC "-//W3C//DTD SVG 1.1//EN" "http://www.w3.org/Graphics/SVG/1.1/DTD/svg11.dtd">
<svg version="1.1" id="Layer_1" xmlns="http://www.w3.org/2000/svg" xmlns:xlink="http://www.w3.org/1999/xlink" x="0px" y="0px"
	 width="30.75px" height="38.25px" viewBox="0 0 30.75 38.25" enable-background="new 0 0 30.75 38.25" xml:space="preserve">
<g>
	<path fill="none" stroke="#F3F3F3" stroke-linecap="round" stroke-miterlimit="10" d="M23.325,15.79
		c2.798,2.319,4.58,5.82,4.58,9.738"/>
	<path fill="none" stroke="#F3F3F3" stroke-linecap="round" stroke-miterlimit="10" d="M2.617,25.527
		c0-6.757,5.301-12.277,11.974-12.625"/>
	<path fill="#F3F3F3" d="M17.521,22.837c-0.556,1.425-1.237,2.762-2.761,2.762c-1.527,0-3.002-1.256-2.763-2.762
		c0.252-1.601,8.507-9.781,8.507-9.781S18.213,21.054,17.521,22.837z"/>
</g>
</svg>
