<?xml version="1.0" encoding="utf-8"?>
<!-- Generator: Adobe Illustrator 16.0.0, SVG Export Plug-In . SVG Version: 6.00 Build 0)  -->
<!DOCTYPE svg PUBLIC "-//W3C//DTD SVG 1.1//EN" "http://www.w3.org/Graphics/SVG/1.1/DTD/svg11.dtd">
<svg version="1.1" id="Layer_1" xmlns="http://www.w3.org/2000/svg" xmlns:xlink="http://www.w3.org/1999/xlink" x="0px" y="0px"
	 width="50px" height="50px" viewBox="0 0 50 50" enable-background="new 0 0 50 50" xml:space="preserve">
<path fill-rule="evenodd" clip-rule="evenodd" fill="#3C4042" d="M686,563.569c-0.094-0.094-0.202-0.163-0.316-0.21l-11.765-10.79
	c-0.372-0.371-0.976-0.371-1.347,0c-0.372,0.372-0.372,0.977,0,1.348l11.303,10.366l-11.301,10.365
	c-0.372,0.373-0.372,0.976,0,1.348c0.371,0.372,0.975,0.372,1.346,0l11.764-10.79c0.114-0.047,0.223-0.117,0.315-0.21
	c0.194-0.195,0.281-0.454,0.272-0.71C686.283,564.028,686.197,563.767,686,563.569"/>
<path fill-rule="evenodd" clip-rule="evenodd" fill="#3C4042" d="M34,20H16c-0.553,0-1,0.447-1,1.001C15,21.552,15.447,22,16,22h18
	c0.552,0,1-0.448,1-0.999C35,20.447,34.551,20,34,20 M34,28H16c-0.553,0-1,0.447-1,1s0.447,1,1,1h18c0.552,0,1-0.447,1-1
	S34.551,28,34,28"/>
</svg>
