<?xml version="1.0" encoding="utf-8"?>
<!-- Generator: Adobe Illustrator 16.0.0, SVG Export Plug-In . SVG Version: 6.00 Build 0)  -->
<!DOCTYPE svg PUBLIC "-//W3C//DTD SVG 1.1//EN" "http://www.w3.org/Graphics/SVG/1.1/DTD/svg11.dtd">
<svg version="1.1" id="Layer_1" xmlns="http://www.w3.org/2000/svg" xmlns:xlink="http://www.w3.org/1999/xlink" x="0px" y="0px"
	 width="30.75px" height="38.25px" viewBox="0 0 30.75 38.25" enable-background="new 0 0 30.75 38.25" xml:space="preserve">
<g>
	<g>
		<path fill="none" stroke="#36464E" stroke-width="1.0842" stroke-miterlimit="10" d="M10.186,9.949l0.04-0.036
			c0.153-0.101,0.23-0.258,0.202-0.422c-0.381-2.05-0.13-2.903-0.046-3.117c0.667-1.828,2.761-2.673,3.174-2.822
			c0.089-0.03,0.25-0.075,0.413-0.097l0.054-0.011l0.334-0.016l0.002,0.018l0.078-0.007c0.07-0.005,0.134-0.014,0.22-0.03
			l0.075-0.013c0.062,0.001,0.881,0.093,2.094,0.423l0.841,0.258c1.544,0.407,2.253,1.161,2.383,1.313
			c1.234,1.246,0.904,3.127,0.597,4.137c-0.031,0.119-0.01,0.241,0.062,0.343l0.068,0.075c0.091,0.109,0.172,0.526-0.096,1.414
			c-0.051,0.27-0.16,0.489-0.328,0.636c-0.062,0.06-0.104,0.137-0.119,0.222c-0.418,2.181-2.609,4.617-4.923,4.617
			c-1.955,0-4.193-2.241-4.594-4.615c-0.017-0.088-0.054-0.166-0.125-0.234c-0.167-0.154-0.275-0.377-0.338-0.706
			C10.055,10.658,10.036,10.159,10.186,9.949z"/>
		<path fill="none" stroke="#36464E" stroke-width="1.0842" stroke-miterlimit="10" d="M5.791,21.184
			c0.083-0.097,0.559-0.59,1.514-0.916c0.843-0.229,2.924-0.847,4.063-1.582c0.053-0.026,0.106-0.075,0.15-0.116
			c0.106-0.101,0.265-0.255,0.455-0.412l0.106-0.088l0.11,0.089c1.004,0.842,2.111,1.303,3.121,1.303
			c1.065,0,2.163-0.409,3.176-1.187l0.08-0.061l0.216,0.093c0.192,0.157,0.524,0.372,0.68,0.438l0.197,0.086l-0.021,0.018
			l0.09,0.048c0.186,0.101,0.391,0.198,0.627,0.303c0.242,0.095,0.44,0.164,0.652,0.225c0.174,0.052,1.109,0.332,2.178,0.771
			l0.203,0.055c1.041,0.355,1.506,0.85,1.551,0.9c1.234,1.635,1.711,4.683,1.888,6.381c-3.229,2.339-7.294,3.626-11.451,3.626
			c-4.154,0-8.22-1.287-11.449-3.627C4.096,25.84,4.57,22.8,5.791,21.184z"/>
	</g>
	<g>
		<path fill="#36464E" stroke="#F3F3F3" stroke-width="0.5706" stroke-miterlimit="10" d="M17.619,31.764
			c0.125,0.186,0.057,0.426-0.153,0.534L12.763,34.8c-0.207,0.108-0.478,0.05-0.601-0.137l-4.587-6.856
			c-0.123-0.185-0.055-0.424,0.153-0.535l4.703-2.498c0.21-0.11,0.477-0.051,0.602,0.135L17.619,31.764z"/>
		<path fill="#36464E" stroke="#F3F3F3" stroke-width="0.5706" stroke-miterlimit="10" d="M21.17,34.584
			c-0.096,0.197-0.355,0.286-0.576,0.197l-5-1.995c-0.222-0.087-0.321-0.319-0.222-0.515l3.661-7.285
			c0.098-0.196,0.355-0.285,0.58-0.196l4.998,1.994c0.218,0.087,0.315,0.319,0.218,0.516L21.17,34.584z"/>
		<path fill="#36464E" stroke="#F3F3F3" stroke-width="0.5706" stroke-miterlimit="10" d="M19.09,33.128
			c0,0.214-0.195,0.39-0.439,0.39h-5.478c-0.244,0-0.439-0.176-0.439-0.39v-7.981c0-0.217,0.195-0.391,0.439-0.391h5.478
			c0.244,0,0.439,0.174,0.439,0.391V33.128z"/>
	</g>
	<g>
		<path fill="#EDEDED" d="M15.01,30.229c0.404,0,0.752-0.256,0.939-0.435c0.189,0.179,0.537,0.435,0.939,0.435
			c0.697,0,1.186-0.434,1.186-1.053c0-0.684-0.605-1.125-1.189-1.552c-0.275-0.202-0.562-0.411-0.781-0.642
			c-0.039-0.041-0.092-0.062-0.146-0.062h-0.014c-0.055,0-0.109,0.021-0.147,0.062c-0.218,0.229-0.507,0.438-0.779,0.642
			c-0.587,0.427-1.19,0.868-1.19,1.552C13.826,29.795,14.311,30.229,15.01,30.229z"/>
		<path fill="#EDEDED" d="M15.226,31.025c0.482-0.076,0.967-0.073,1.449,0c-0.481-0.641-0.726-1.883-0.726-1.883
			S15.708,30.386,15.226,31.025z"/>
	</g>
</g>
</svg>
