<?xml version="1.0" encoding="utf-8"?>
<!-- Generator: Adobe Illustrator 16.0.0, SVG Export Plug-In . SVG Version: 6.00 Build 0)  -->
<!DOCTYPE svg PUBLIC "-//W3C//DTD SVG 1.1//EN" "http://www.w3.org/Graphics/SVG/1.1/DTD/svg11.dtd">
<svg version="1.1" id="Layer_1" xmlns="http://www.w3.org/2000/svg" xmlns:xlink="http://www.w3.org/1999/xlink" x="0px" y="0px"
	 width="59.334px" height="44.667px" viewBox="0 0 59.334 44.667" enable-background="new 0 0 59.334 44.667" xml:space="preserve">
<path fill-rule="evenodd" clip-rule="evenodd" fill="#3C4042" d="M38.589,21.999L27.285,11.632c-0.372-0.371-0.372-0.976,0-1.348
	c0.372-0.371,0.975-0.371,1.348,0l11.764,10.79c0.114,0.047,0.224,0.116,0.317,0.21c0.197,0.197,0.283,0.459,0.271,0.717
	c0.011,0.256-0.077,0.516-0.272,0.71c-0.092,0.093-0.199,0.163-0.314,0.209L28.633,33.71c-0.371,0.372-0.975,0.372-1.346,0
	c-0.374-0.372-0.374-0.975,0-1.348L38.589,21.999z"/>
<path fill-rule="evenodd" clip-rule="evenodd" fill="#3C4042" d="M28.593,21.999L17.287,11.632c-0.371-0.371-0.371-0.976,0-1.348
	c0.372-0.371,0.975-0.371,1.348,0L30.4,21.075c0.115,0.047,0.225,0.116,0.318,0.21c0.197,0.197,0.283,0.459,0.27,0.717
	c0.012,0.256-0.076,0.516-0.271,0.71c-0.092,0.093-0.199,0.163-0.314,0.209L18.635,33.71c-0.371,0.372-0.975,0.372-1.346,0
	c-0.373-0.372-0.373-0.975,0-1.348L28.593,21.999z"/>
</svg>
