<?xml version="1.0" encoding="utf-8"?>
<!-- Generator: Adobe Illustrator 16.0.0, SVG Export Plug-In . SVG Version: 6.00 Build 0)  -->
<!DOCTYPE svg PUBLIC "-//W3C//DTD SVG 1.1//EN" "http://www.w3.org/Graphics/SVG/1.1/DTD/svg11.dtd">
<svg version="1.1" id="Layer_1" xmlns="http://www.w3.org/2000/svg" xmlns:xlink="http://www.w3.org/1999/xlink" x="0px" y="0px"
	 width="30.75px" height="38.25px" viewBox="0 0 30.75 38.25" enable-background="new 0 0 30.75 38.25" xml:space="preserve">
<g>
	<g>
		<polygon fill="#F3F3F3" points="27.549,18.593 27.549,15.784 28.689,15.784 28.689,19.196 25.246,21.584 25.264,20.23 		"/>
		<path fill="none" stroke="#F3F3F3" stroke-miterlimit="10" d="M30.053,13.89c0,1.046-0.848,1.894-1.893,1.894
			c-1.049,0-1.895-0.848-1.895-1.894c0-1.046,0.846-1.895,1.895-1.895C29.205,11.995,30.053,12.843,30.053,13.89z"/>
	</g>
	<path fill="none" stroke="#F3F3F3" stroke-miterlimit="10" d="M25.174,25.16c0,0.605-0.617,1.095-1.379,1.095H2.076
		c-0.762,0-1.379-0.489-1.379-1.095v-9.861c0-0.605,0.617-1.096,1.379-1.096h21.719c0.762,0,1.379,0.491,1.379,1.096V25.16z"/>
	<path fill="#F3F3F3" d="M2.729,15.409v9.64h5.884v-9.64H2.729z M7.439,19.629c0,0.25,0.007,0.279-0.192,0.451l-1.003,0.866
		c-0.186,0.165-0.2,0.18-0.2,0.43v1.388c0,0.229-0.101,0.357-0.358,0.357s-0.358-0.128-0.358-0.357v-1.725
		c0-0.236,0.008-0.257,0.188-0.415l0.987-0.852c0.236-0.208,0.221-0.201,0.221-0.516v-0.988H4.62c0,0.158-0.131,0.359-0.359,0.359
		s-0.357-0.201-0.357-0.359v-0.357c0-0.157,0.129-0.357,0.357-0.357h3.179V19.629z"/>
	<path fill="#F3F3F3" d="M9.811,15.409v9.64h5.885v-9.64H9.811z M14.522,19.629c0,0.25,0.007,0.279-0.194,0.451l-1.001,0.866
		c-0.187,0.165-0.202,0.18-0.202,0.43v1.388c0,0.229-0.099,0.357-0.357,0.357c-0.258,0-0.357-0.128-0.357-0.357v-1.725
		c0-0.236,0.006-0.257,0.186-0.415l0.987-0.852c0.236-0.208,0.223-0.201,0.223-0.516v-0.988h-2.104c0,0.158-0.13,0.359-0.357,0.359
		c-0.229,0-0.359-0.201-0.359-0.359v-0.357c0-0.157,0.13-0.357,0.359-0.357h3.179V19.629z"/>
	<path fill="#F3F3F3" d="M16.893,15.409v9.64h5.887v-9.64H16.893z M21.605,19.629c0,0.25,0.006,0.279-0.195,0.451l-1.002,0.866
		c-0.186,0.165-0.201,0.18-0.201,0.43v1.388c0,0.229-0.1,0.357-0.357,0.357s-0.357-0.128-0.357-0.357v-1.725
		c0-0.236,0.006-0.257,0.186-0.415l0.988-0.852c0.236-0.208,0.223-0.201,0.223-0.516v-0.988h-2.105c0,0.158-0.129,0.359-0.359,0.359
		c-0.227,0-0.357-0.201-0.357-0.359v-0.357c0-0.157,0.131-0.357,0.357-0.357h3.182V19.629z"/>
</g>
</svg>
