<?xml version="1.0" encoding="utf-8"?>
<!-- Generator: Adobe Illustrator 16.0.0, SVG Export Plug-In . SVG Version: 6.00 Build 0)  -->
<!DOCTYPE svg PUBLIC "-//W3C//DTD SVG 1.1//EN" "http://www.w3.org/Graphics/SVG/1.1/DTD/svg11.dtd">
<svg version="1.1" id="Layer_1" xmlns="http://www.w3.org/2000/svg" xmlns:xlink="http://www.w3.org/1999/xlink" x="0px" y="0px"
	 width="30.75px" height="38.25px" viewBox="0 0 30.75 38.25" enable-background="new 0 0 30.75 38.25" xml:space="preserve">
<path fill-rule="evenodd" clip-rule="evenodd" fill="#F3F3F3" d="M19.51,20.208c-1.586,0-2.974-1.079-3.375-2.625l-0.097-0.375
	H5.509c-0.276,0-0.5-0.224-0.5-0.5c0-0.276,0.224-0.5,0.5-0.5h10.529l0.097-0.375c0.401-1.546,1.789-2.625,3.375-2.625
	c1.587,0,2.974,1.08,3.373,2.625l0.098,0.375h2.529c0.275,0,0.5,0.224,0.5,0.5c0,0.275-0.225,0.5-0.5,0.5H22.98l-0.098,0.375
	C22.483,19.129,21.097,20.208,19.51,20.208z M19.51,14.209c-1.379,0-2.5,1.122-2.5,2.5c0,1.377,1.121,2.498,2.5,2.498
	s2.5-1.121,2.5-2.498C22.01,15.331,20.889,14.209,19.51,14.209z"/>
<path fill-rule="evenodd" clip-rule="evenodd" fill="#F3F3F3" d="M11.51,11.896c-1.586,0-2.974-1.08-3.374-2.625L8.04,8.896H5.51
	c-0.276,0-0.5-0.224-0.5-0.5s0.224-0.5,0.5-0.5h2.53l0.097-0.375c0.4-1.545,1.787-2.625,3.374-2.625c1.586,0,2.974,1.08,3.375,2.625
	l0.097,0.375H25.51c0.275,0,0.5,0.224,0.5,0.5s-0.225,0.5-0.5,0.5H14.982l-0.097,0.375C14.484,10.817,13.096,11.896,11.51,11.896z
	 M11.51,5.896c-1.378,0-2.5,1.122-2.5,2.5c0,1.378,1.122,2.499,2.5,2.499s2.5-1.121,2.5-2.499C14.01,7.018,12.888,5.896,11.51,5.896
	z"/>
<path fill-rule="evenodd" clip-rule="evenodd" fill="#F3F3F3" d="M11.51,28.52c-1.586,0-2.974-1.079-3.374-2.625L8.04,25.52H5.51
	c-0.276,0-0.5-0.225-0.5-0.5s0.224-0.5,0.5-0.5h2.53l0.097-0.375c0.4-1.546,1.787-2.625,3.374-2.625c1.586,0,2.974,1.08,3.375,2.626
	l0.097,0.374H25.51c0.275,0,0.5,0.225,0.5,0.5s-0.225,0.5-0.5,0.5H14.982l-0.097,0.374C14.484,27.439,13.096,28.52,11.51,28.52z
	 M11.51,22.52c-1.378,0-2.5,1.121-2.5,2.5c0,1.378,1.122,2.499,2.5,2.499s2.5-1.121,2.5-2.499
	C14.01,23.641,12.888,22.52,11.51,22.52z"/>
</svg>
