<?xml version="1.0" encoding="utf-8"?>
<!-- Generator: Adobe Illustrator 16.0.0, SVG Export Plug-In . SVG Version: 6.00 Build 0)  -->
<!DOCTYPE svg PUBLIC "-//W3C//DTD SVG 1.1//EN" "http://www.w3.org/Graphics/SVG/1.1/DTD/svg11.dtd">
<svg version="1.1" id="Layer_1" xmlns="http://www.w3.org/2000/svg" xmlns:xlink="http://www.w3.org/1999/xlink" x="0px" y="0px"
	 width="50px" height="53.03px" viewBox="0 0 50 53.03" enable-background="new 0 0 50 53.03" xml:space="preserve">
<g>
	<g>
		<path fill="#333333" d="M31.032,3.697c-0.555-0.281-1.22-0.227-1.722,0.142l-18,13.205c-0.288-0.246-0.661-0.395-1.069-0.395
			H4.088c-0.911,0-1.65,0.738-1.65,1.649v15.18c0,0.911,0.739,1.65,1.65,1.65h6.152c0.409,0,0.781-0.149,1.069-0.395l18,13.205
			c0.289,0.212,0.632,0.319,0.976,0.319c0.254,0,0.51-0.058,0.746-0.178c0.555-0.281,0.904-0.851,0.904-1.472V5.169
			C31.937,4.547,31.587,3.979,31.032,3.697z M5.739,19.949h2.852v11.88H5.739V19.949z M11.891,31.067V20.711L28.636,8.426l0,34.926
			L11.891,31.067z"/>
		<path fill="#333333" d="M42.961,25.889l4.834-4.834c0.645-0.644,0.645-1.688,0-2.333c-0.644-0.645-1.689-0.645-2.333,0
			l-4.834,4.833l-4.834-4.833c-0.645-0.645-1.689-0.645-2.333,0s-0.645,1.689,0,2.333l4.834,4.834l-4.833,4.835
			c-0.645,0.644-0.645,1.688,0,2.333c0.322,0.322,0.744,0.483,1.167,0.483c0.422,0,0.844-0.161,1.167-0.483l4.834-4.834l4.833,4.834
			c0.322,0.322,0.745,0.483,1.167,0.483c0.423,0,0.845-0.161,1.167-0.483c0.644-0.645,0.644-1.689,0-2.333L42.961,25.889z"/>
	</g>
</g>
</svg>
