<?xml version="1.0" encoding="utf-8"?>
<!-- Generator: Adobe Illustrator 16.0.0, SVG Export Plug-In . SVG Version: 6.00 Build 0)  -->
<!DOCTYPE svg PUBLIC "-//W3C//DTD SVG 1.1//EN" "http://www.w3.org/Graphics/SVG/1.1/DTD/svg11.dtd">
<svg version="1.1" id="Layer_1" xmlns="http://www.w3.org/2000/svg" xmlns:xlink="http://www.w3.org/1999/xlink" x="0px" y="0px"
	 width="100px" height="100px" viewBox="0 0 100 100" enable-background="new 0 0 100 100" xml:space="preserve">
<path fill="#ffffff" d="
M81.166,76.667h3v7.5h-7.5v-3h4.5V76.667z
M34,81.167h10.666v3H34V81.167z
M55.333,81.167H66v3H55.333V81.167z
M18.833,81.167h4.5v3h-7.5v-7.5h3V81.167z
M18.833,66h-3V55.333h3V66z
M18.833,44.667h-3V34h3V44.667z
M15.833,15.833h7.5v3h-4.5v4.5h-3V15.833z
M44.666,18.833H34v-3h10.666V18.833z
M66,18.833H55.332v-3H66V18.833z
M84.166,15.833v7.5h-3v-4.5h-4.5v-3H84.166z
M81.166,55.333h3V66h-3V55.333z
M81.166,34h3v10.667h-3V34z"/>
</svg>
