<?xml version="1.0" encoding="utf-8"?>
<!-- Generator: Adobe Illustrator 16.0.0, SVG Export Plug-In . SVG Version: 6.00 Build 0)  -->
<!DOCTYPE svg PUBLIC "-//W3C//DTD SVG 1.1//EN" "http://www.w3.org/Graphics/SVG/1.1/DTD/svg11.dtd">
<svg version="1.1" id="Layer_1" xmlns="http://www.w3.org/2000/svg" xmlns:xlink="http://www.w3.org/1999/xlink" x="0px" y="0px"
	 width="30.75px" height="38.25px" viewBox="0 0 30.75 38.25" enable-background="new 0 0 30.75 38.25" xml:space="preserve">
<g>
	<circle fill="none" stroke="#FFFFFF" stroke-miterlimit="10" cx="15.32" cy="19.605" r="13.532"/>
	<g>
		<path fill="#FFFFFF" d="M11.901,19.374l5.838-5.64v1.37l-3.969,3.773c-0.508,0.501-0.953,0.877-1.332,1.128v0.081
			c0.486,0.366,0.935,0.742,1.343,1.128l3.958,3.772v1.37l-5.838-5.64V19.374z"/>
	</g>
</g>
</svg>
