<?xml version="1.0" encoding="utf-8"?>
<!-- Generator: Adobe Illustrator 16.0.0, SVG Export Plug-In . SVG Version: 6.00 Build 0)  -->
<!DOCTYPE svg PUBLIC "-//W3C//DTD SVG 1.1//EN" "http://www.w3.org/Graphics/SVG/1.1/DTD/svg11.dtd">
<svg version="1.1" id="Layer_1" xmlns="http://www.w3.org/2000/svg" xmlns:xlink="http://www.w3.org/1999/xlink" x="0px" y="0px"
	 width="30px" height="30px" viewBox="0 0 30 30" enable-background="new 0 0 30 30" xml:space="preserve">
<g>
	<path fill="#F2F2F2" d="M13.074,26.698L6.318,20.16c-0.625-0.604-0.642-1.603-0.037-2.228c0.605-0.626,1.602-0.644,2.228-0.036
		l4.061,3.929l9.971-14.716c0.489-0.721,1.471-0.907,2.188-0.42c0.721,0.488,0.908,1.468,0.421,2.188L13.074,26.698z"/>
</g>
</svg>
