^F:\WIGOS\SRC\WGC-REFACTOR\CLIENT_00\WGC\LANGUAGE\NLS_009\NLS_009.RC
F:\WIGOS\SRC\WGC-REFACTOR\WIGOS SYSTEM\WGC\KERNEL\LANGUAGE\NLS_009\NLS_009_COMMON.RC
F:\WIGOS\SRC\WGC-REFACTOR\WIGOS SYSTEM\WGC\COMMON\INCLUDE\NLS_COMMON.H
F:\WIGOS\SRC\WGC-REFACTOR\WIGOS SYSTEM\WGC\KERNEL\LANGUAGE\NLS_009\NLS_009_ALARMS.RC
F:\WIGOS\SRC\WGC-REFACTOR\WIGOS SYSTEM\WGC\KERNEL\LANGUAGE\NLS_009\NLS_009_APPLICATIONLOG.RC
F:\WIGOS\SRC\WGC-REFACTOR\WIGOS SYSTEM\WGC\KERNEL\LANGUAGE\NLS_009\NLS_009_BATCHTRXMGR.RC
F:\WIGOS\SRC\WGC-REFACTOR\WIGOS SYSTEM\WGC\KERNEL\LANGUAGE\NLS_009\NLS_009_DATABASE.RC
F:\WIGOS\SRC\WGC-REFACTOR\WIGOS SYSTEM\WGC\KERNEL\LANGUAGE\NLS_009\NLS_009_GUIALARMS.RC
F:\WIGOS\SRC\WGC-REFACTOR\WIGOS SYSTEM\WGC\KERNEL\LANGUAGE\NLS_009\NLS_009_GUIAUDITOR.RC
F:\WIGOS\SRC\WGC-REFACTOR\WIGOS SYSTEM\WGC\KERNEL\LANGUAGE\NLS_009\NLS_009_GUICOMMONMISC.RC
F:\WIGOS\SRC\WGC-REFACTOR\WIGOS SYSTEM\WGC\KERNEL\LANGUAGE\NLS_009\NLS_009_GUICOMMUNICATIONS.RC
F:\WIGOS\SRC\WGC-REFACTOR\WIGOS SYSTEM\WGC\KERNEL\LANGUAGE\NLS_009\NLS_009_GUICONFIGURATION.RC
F:\WIGOS\SRC\WGC-REFACTOR\WIGOS SYSTEM\WGC\KERNEL\LANGUAGE\NLS_009\NLS_009_GUICONTROL.RC
F:\WIGOS\SRC\WGC-REFACTOR\WIGOS SYSTEM\WGC\KERNEL\LANGUAGE\NLS_009\NLS_009_GUICONTROLS.RC
F:\WIGOS\SRC\WGC-REFACTOR\WIGOS SYSTEM\WGC\KERNEL\LANGUAGE\NLS_009\NLS_009_GUIINVOICESYSTEM.RC
F:\WIGOS\SRC\WGC-REFACTOR\WIGOS SYSTEM\WGC\KERNEL\LANGUAGE\NLS_009\NLS_009_GUIJACKPOTMANAGER.RC
F:\WIGOS\SRC\WGC-REFACTOR\WIGOS SYSTEM\WGC\KERNEL\LANGUAGE\NLS_009\NLS_009_GUISETUP.RC
F:\WIGOS\SRC\WGC-REFACTOR\WIGOS SYSTEM\WGC\KERNEL\LANGUAGE\NLS_009\NLS_009_GUISTATISTICS.RC
F:\WIGOS\SRC\WGC-REFACTOR\WIGOS SYSTEM\WGC\KERNEL\LANGUAGE\NLS_009\NLS_009_GUISYSTEMMONITOR.RC
F:\WIGOS\SRC\WGC-REFACTOR\WIGOS SYSTEM\WGC\KERNEL\LANGUAGE\NLS_009\NLS_009_GUITICKETSMANAGER.RC
F:\WIGOS\SRC\WGC-REFACTOR\WIGOS SYSTEM\WGC\KERNEL\LANGUAGE\NLS_009\NLS_009_GUIVERSIONCONTROL.RC
F:\WIGOS\SRC\WGC-REFACTOR\WIGOS SYSTEM\WGC\KERNEL\LANGUAGE\NLS_009\NLS_009_LOGGER.RC
F:\WIGOS\SRC\WGC-REFACTOR\WIGOS SYSTEM\WGC\KERNEL\LANGUAGE\NLS_009\NLS_009_ONLINETRXMGR.RC
F:\WIGOS\SRC\WGC-REFACTOR\WIGOS SYSTEM\WGC\KERNEL\LANGUAGE\NLS_009\NLS_009_RESOURCEMGR.RC
F:\WIGOS\SRC\WGC-REFACTOR\WIGOS SYSTEM\WGC\KERNEL\LANGUAGE\NLS_009\NLS_009_SERVICES.RC
F:\WIGOS\SRC\WGC-REFACTOR\WIGOS SYSTEM\WGC\KERNEL\LANGUAGE\NLS_009\NLS_009_SWDOWNLOADMGR.RC
F:\WIGOS\SRC\WGC-REFACTOR\WIGOS SYSTEM\WGC\KERNEL\LANGUAGE\NLS_009\NLS_009_TRXAUDIT.RC
F:\WIGOS\SRC\WGC-REFACTOR\WIGOS SYSTEM\WGC\KERNEL\LANGUAGE\NLS_009\NLS_009_VERSIONCONTROL.RC
F:\WIGOS\SRC\WGC-REFACTOR\WIGOS SYSTEM\WGC\KERNEL\LANGUAGE\NLS_009\NLS_009_GUI_LAUNCHBAR.RC
F:\WIGOS\SRC\WGC-REFACTOR\WIGOS SYSTEM\WGC\KERNEL\LANGUAGE\NLS_009\NLS_009_GUIDATECODE.RC
F:\WIGOS\SRC\WGC-REFACTOR\WIGOS SYSTEM\WGC\KERNEL\LANGUAGE\NLS_009\NLS_009_LKASFUNCTIONS.RC
F:\WIGOS\SRC\WGC-REFACTOR\WIGOS SYSTEM\WGC\KERNEL\LANGUAGE\NLS_009\NLS_009_GUICLASSII.RC
F:\WIGOS\SRC\WGC-REFACTOR\WIGOS SYSTEM\WGC\KERNEL\LANGUAGE\NLS_009\NLS_009_GUISWDOWNLOAD.RC
F:\WIGOS\SRC\WGC-REFACTOR\WIGOS SYSTEM\WGC\KERNEL\LANGUAGE\NLS_009\NLS_009_GUIPLAYERTRACKING.RC
C:\PROGRAM FILES (X86)\MICROSOFT VISUAL STUDIO 12.0\VC\ATLMFC\INCLUDE\AFXRES.H
C:\PROGRAM FILES (X86)\WINDOWS KITS\8.1\INCLUDE\UM\WINRES.H
C:\PROGRAM FILES (X86)\WINDOWS KITS\8.1\INCLUDE\UM\WINRESRC.H
C:\PROGRAM FILES (X86)\WINDOWS KITS\8.1\INCLUDE\UM\WINUSER.RH
C:\PROGRAM FILES (X86)\WINDOWS KITS\8.1\INCLUDE\UM\COMMCTRL.RH
C:\PROGRAM FILES (X86)\WINDOWS KITS\8.1\INCLUDE\UM\DDE.RH
C:\PROGRAM FILES (X86)\WINDOWS KITS\8.1\INCLUDE\UM\WINNT.RH
C:\PROGRAM FILES (X86)\WINDOWS KITS\8.1\INCLUDE\UM\DLGS.H
C:\PROGRAM FILES (X86)\WINDOWS KITS\8.1\INCLUDE\SHARED\WINAPIFAMILY.H
C:\PROGRAM FILES (X86)\WINDOWS KITS\8.1\INCLUDE\UM\WINVER.H
C:\PROGRAM FILES (X86)\WINDOWS KITS\8.1\INCLUDE\SHARED\SPECSTRINGS.H
C:\PROGRAM FILES (X86)\WINDOWS KITS\8.1\INCLUDE\SHARED\SAL.H
C:\PROGRAM FILES (X86)\WINDOWS KITS\8.1\INCLUDE\SHARED\CONCURRENCYSAL.H
C:\PROGRAM FILES (X86)\WINDOWS KITS\8.1\INCLUDE\SHARED\DRIVERSPECS.H
C:\PROGRAM FILES (X86)\WINDOWS KITS\8.1\INCLUDE\SHARED\SDV_DRIVERSPECS.H
C:\PROGRAM FILES (X86)\WINDOWS KITS\8.1\INCLUDE\UM\VERRSRC.H
