^F:\Wigos\src\wgc-refactor\Wigos System\WGC\Kernel\Queue_API\Queue_API.vcxproj
F:\Wigos\src\wgc-refactor\Wigos System\WGC\common\Lib\Queue_API.lib
F:\Wigos\src\wgc-refactor\Wigos System\WGC\common\Lib\Queue_API.exp
