^F:\WIGOS\SRC\WGC-REFACTOR\WIGOS SYSTEM\WGC\KERNEL\WATCHDOG_API\WATCHDOG_API.CPP
F:\WIGOS\SRC\WGC-REFACTOR\WIGOS SYSTEM\WGC\KERNEL\WATCHDOG_API\DEBUG\VC120.PDB
F:\WIGOS\SRC\WGC-REFACTOR\WIGOS SYSTEM\WGC\KERNEL\WATCHDOG_API\DEBUG\WATCHDOG_API.OBJ
