^F:\Wigos\src\wgc-refactor\Wigos System\WGC\Kernel\Watchdog_API\Watchdog_API.vcxproj
F:\Wigos\src\wgc-refactor\Wigos System\WGC\Common\Lib\Watchdog_API.lib
F:\Wigos\src\wgc-refactor\Wigos System\WGC\Common\Lib\Watchdog_API.exp
