^F:\WIGOS\SRC\WGC-REFACTOR\WIGOS SYSTEM\WGC\KERNEL\LICENSE\DEBUG\LICENSECREATE.OBJ|F:\WIGOS\SRC\WGC-REFACTOR\WIGOS SYSTEM\WGC\KERNEL\LICENSE\DEBUG\LICENSEMISC.OBJ|F:\WIGOS\SRC\WGC-REFACTOR\WIGOS SYSTEM\WGC\KERNEL\LICENSE\DEBUG\LICENSEREAD.OBJ
C:\WINDOWS\SYSTEM32\TZRES.DLL
F:\WIGOS\SRC\WGC-REFACTOR\WIGOS SYSTEM\WGC\KERNEL\LICENSE\DEBUG\LICENSECREATE.OBJ
F:\WIGOS\SRC\WGC-REFACTOR\WIGOS SYSTEM\WGC\KERNEL\LICENSE\DEBUG\LICENSEMISC.OBJ
F:\WIGOS\SRC\WGC-REFACTOR\WIGOS SYSTEM\WGC\KERNEL\LICENSE\DEBUG\LICENSEREAD.OBJ
C:\WINDOWS\GLOBALIZATION\SORTING\SORTDEFAULT.NLS
