^F:\WIGOS\SRC\WGC-REFACTOR\WIGOS SYSTEM\WGC\KERNEL\VERSIONCONTROL\DISTRIBUTIONLIST.CPP
/c /I..\..\Common\INCLUDE /I..\..\..\Common\INCLUDE /Zi /nologo /W3 /WX- /Od /Oy- /D WIN32 /D _DEBUG /D _WINDOWS /D COMMONMISC_API_EXPORTS /D _CRT_SECURE_NO_WARNINGS /D _VC80_UPGRADE=0x0710 /D _MBCS /Gm- /EHsc /RTC1 /MD /Zp1 /GS /fp:precise /Zc:wchar_t /Zc:forScope /Fo".\DEBUG/" /Fd".\DEBUG/VC120.PDB" /Gd /TP /analyze- F:\WIGOS\SRC\WGC-REFACTOR\WIGOS SYSTEM\WGC\KERNEL\VERSIONCONTROL\DISTRIBUTIONLIST.CPP
^F:\WIGOS\SRC\WGC-REFACTOR\WIGOS SYSTEM\WGC\KERNEL\VERSIONCONTROL\DISTRIBUTIONLISTCRC32.CPP
/c /I..\..\Common\INCLUDE /I..\..\..\Common\INCLUDE /Zi /nologo /W3 /WX- /Od /Oy- /D WIN32 /D _DEBUG /D _WINDOWS /D COMMONMISC_API_EXPORTS /D _CRT_SECURE_NO_WARNINGS /D _VC80_UPGRADE=0x0710 /D _MBCS /Gm- /EHsc /RTC1 /MD /Zp1 /GS /fp:precise /Zc:wchar_t /Zc:forScope /Fo".\DEBUG/" /Fd".\DEBUG/VC120.PDB" /Gd /TP /analyze- F:\WIGOS\SRC\WGC-REFACTOR\WIGOS SYSTEM\WGC\KERNEL\VERSIONCONTROL\DISTRIBUTIONLISTCRC32.CPP
^F:\WIGOS\SRC\WGC-REFACTOR\WIGOS SYSTEM\WGC\KERNEL\VERSIONCONTROL\DISTRIBUTIONLISTENCRYPTION.CPP
/c /I..\..\Common\INCLUDE /I..\..\..\Common\INCLUDE /Zi /nologo /W3 /WX- /Od /Oy- /D WIN32 /D _DEBUG /D _WINDOWS /D COMMONMISC_API_EXPORTS /D _CRT_SECURE_NO_WARNINGS /D _VC80_UPGRADE=0x0710 /D _MBCS /Gm- /EHsc /RTC1 /MD /Zp1 /GS /fp:precise /Zc:wchar_t /Zc:forScope /Fo".\DEBUG/" /Fd".\DEBUG/VC120.PDB" /Gd /TP /analyze- F:\WIGOS\SRC\WGC-REFACTOR\WIGOS SYSTEM\WGC\KERNEL\VERSIONCONTROL\DISTRIBUTIONLISTENCRYPTION.CPP
^F:\WIGOS\SRC\WGC-REFACTOR\WIGOS SYSTEM\WGC\KERNEL\VERSIONCONTROL\VERSIONCONTROL.CPP
/c /I..\..\Common\INCLUDE /I..\..\..\Common\INCLUDE /Zi /nologo /W3 /WX- /Od /Oy- /D WIN32 /D _DEBUG /D _WINDOWS /D COMMONMISC_API_EXPORTS /D _CRT_SECURE_NO_WARNINGS /D _VC80_UPGRADE=0x0710 /D _MBCS /Gm- /EHsc /RTC1 /MD /Zp1 /GS /fp:precise /Zc:wchar_t /Zc:forScope /Fo".\DEBUG/" /Fd".\DEBUG/VC120.PDB" /Gd /TP /analyze- F:\WIGOS\SRC\WGC-REFACTOR\WIGOS SYSTEM\WGC\KERNEL\VERSIONCONTROL\VERSIONCONTROL.CPP
^F:\WIGOS\SRC\WGC-REFACTOR\WIGOS SYSTEM\WGC\KERNEL\VERSIONCONTROL\VERSIONCONTROLCRYPTOAPI.CPP
/c /I..\..\Common\INCLUDE /I..\..\..\Common\INCLUDE /Zi /nologo /W3 /WX- /Od /Oy- /D WIN32 /D _DEBUG /D _WINDOWS /D COMMONMISC_API_EXPORTS /D _CRT_SECURE_NO_WARNINGS /D _VC80_UPGRADE=0x0710 /D _MBCS /Gm- /EHsc /RTC1 /MD /Zp1 /GS /fp:precise /Zc:wchar_t /Zc:forScope /Fo".\DEBUG/" /Fd".\DEBUG/VC120.PDB" /Gd /TP /analyze- F:\WIGOS\SRC\WGC-REFACTOR\WIGOS SYSTEM\WGC\KERNEL\VERSIONCONTROL\VERSIONCONTROLCRYPTOAPI.CPP
