<?xml version="1.0" encoding="utf-8"?>
<!-- Generator: Adobe Illustrator 16.0.0, SVG Export Plug-In . SVG Version: 6.00 Build 0)  -->
<!DOCTYPE svg PUBLIC "-//W3C//DTD SVG 1.1//EN" "http://www.w3.org/Graphics/SVG/1.1/DTD/svg11.dtd">
<svg version="1.1" id="Layer_1" xmlns="http://www.w3.org/2000/svg" xmlns:xlink="http://www.w3.org/1999/xlink" x="0px" y="0px"
	 width="120.548px" height="134.247px" viewBox="0 0 120.548 134.247" enable-background="new 0 0 120.548 134.247"
	 xml:space="preserve">
<g>
	<g>
		<g>
			<path fill="#FFFFFF" d="M94.407,31.25H26.99v88.757h67.413V31.25H94.407z M35.785,64.529c0-13.764,11.156-24.915,24.919-24.915
				c13.76,0,24.905,11.151,24.905,24.915c0,13.766-11.145,24.919-24.905,24.919C46.936,89.448,35.785,78.295,35.785,64.529z"/>
			<path fill="#FFFFFF" d="M61.116,72.415c0.822-1.21,1.71-3.483,2.647-6.841H74.32c-0.074,1.995-0.844,3.454-2.294,4.359
				c-0.806,0.485-1.749,0.788-2.851,0.888v3.798c2.448-0.074,4.424-0.878,5.909-2.408c1.5-1.543,2.343-3.755,2.544-6.627h2.841
				V63.52h-2.875c-0.035-2.898-0.936-5.162-2.693-6.775c-1.766-1.607-3.75-2.407-5.944-2.407c-2.457,0-4.38,0.743-5.77,2.242
				c-1.386,1.49-2.373,3.815-2.967,6.941H48.405c0.206-2.438,1.123-4.108,2.753-5.027c0.907-0.507,2.358-0.818,4.332-0.926v-3.833
				c-2.486,0-4.453,0.407-5.915,1.228c-2.699,1.513-4.186,4.362-4.467,8.567H40.91v2.055h4.198c0.29,2.613,0.884,4.611,1.776,6.007
				c1.62,2.499,4.355,3.746,8.2,3.746C57.76,75.331,59.76,74.36,61.116,72.415z M64.183,63.52c0.315-1.608,0.884-2.898,1.697-3.851
				c0.812-0.953,1.918-1.425,3.355-1.425c1.185,0,2.321,0.407,3.401,1.211c1.084,0.812,1.665,2.177,1.731,4.082L64.183,63.52
				L64.183,63.52z M51.014,70.697c-1.687-0.944-2.596-2.645-2.708-5.124h11.399c-0.483,1.811-1.009,3.099-1.555,3.857
				c-0.944,1.336-2.319,2.001-4.124,2.001C52.88,71.44,51.882,71.188,51.014,70.697z"/>
		</g>
		<path fill="#FFFFFF" d="M105.504,13.476H15.889c-4.908,0-8.887,3.975-8.887,8.885v23.623c0,4.917,3.984,8.891,8.887,8.891h7.645
			V41.212H21.5c-1.67,0-3.022-1.354-3.022-3.019v-8.037c0-1.674,1.352-3.021,3.022-3.021h78.409c1.662,0,3.017,1.35,3.017,3.021
			v8.037c0,1.674-1.354,3.019-3.017,3.019h-2.045v13.667h7.641c4.913,0,8.889-3.977,8.889-8.885V22.366
			C114.399,17.456,110.417,13.476,105.504,13.476z"/>
	</g>
</g>
</svg>
