<?xml version="1.0" encoding="utf-8"?>
<!-- Generator: Adobe Illustrator 16.0.0, SVG Export Plug-In . SVG Version: 6.00 Build 0)  -->
<!DOCTYPE svg PUBLIC "-//W3C//DTD SVG 1.1//EN" "http://www.w3.org/Graphics/SVG/1.1/DTD/svg11.dtd">
<svg version="1.1" id="Layer_1" xmlns="http://www.w3.org/2000/svg" xmlns:xlink="http://www.w3.org/1999/xlink" x="0px" y="0px"
	 width="120.548px" height="134.247px" viewBox="0 0 120.548 134.247" enable-background="new 0 0 120.548 134.247"
	 xml:space="preserve">
<g>
	<g>
		<path fill="#FFFFFF" d="M59.911,57.344c-0.771-0.645-2.784-1.033-4.994-1.154l-1.178-0.028v-4.778h1.502
			c1.632,0,2.443,1.513,2.443,2.819l0.011,1.181h3.044v-1.757c0-1.722-1.015-2.903-1.833-3.538
			c-0.817-0.642-2.167-0.953-5.167-0.953v-1.752h-1v1.752c-3,0-3.913,0.328-4.767,0.997c-0.866,0.663-1.288,1.896-1.288,3.697
			c0,1.855,0.418,3.122,1.276,3.802c0.855,0.673,1.778,1.009,4.778,1.009v4.772l-0.424-0.012c-1.2,0-2.341-0.163-2.687-0.474
			c-0.344-0.31-0.889-1.005-0.889-2.094v-0.45h-2v0.149l-0.117,0.596c0,1.778,0.372,3.024,1.226,3.745
			c0.851,0.711,2.283,1.071,4.375,1.071l0.515,0.017v2.422h1v-2.422l1.133-0.017c2.1,0,3.833-0.376,4.68-1.119
			c0.839-0.756,1.392-2.059,1.392-3.92C60.945,59.188,60.689,57.995,59.911,57.344z M52.74,56.065c0-0.017-0.403-0.022-0.417-0.022
			c-1.752,0-2.619-0.732-2.619-2.184c0-1.392,0.864-2.087,2.625-2.087l0.41-0.011V56.065z M55.214,63.384H53.74V58.76
			c2,0,2.751,0.144,3.177,0.423c0.42,0.289,0.895,0.866,0.895,1.763C57.812,62.581,57.122,63.384,55.214,63.384z"/>
		<path fill="#FFFFFF" d="M75.74,60.384v0.149l0.143,0.596c0,1.778,0.493,3.024,1.352,3.745c0.85,0.711,2.088,1.071,4.182,1.071
			l0.324,0.017v2.422h2v-2.422l0.891-0.017c2.096,0,3.72-0.376,4.554-1.119c0.845-0.756,1.331-2.059,1.331-3.92
			c0-1.717-0.354-2.911-1.125-3.562c-0.773-0.645-2.523-1.033-4.729-1.154l-0.921-0.028v-4.778h1.014
			c1.635,0,2.447,1.513,2.447,2.819l0.012,1.181h2.527v-1.757c0-1.722-0.514-2.903-1.332-3.538
			c-0.818-0.642-1.668-0.953-4.668-0.953v-1.752h-2v1.752c-2,0-3.652,0.328-4.502,0.997c-0.873,0.663-1.162,1.896-1.162,3.697
			c0,1.855,0.221,3.122,1.082,3.802c0.861,0.673,2.582,1.009,4.582,1.009v4.772l-0.162-0.012c-1.199,0-1.975-0.163-2.317-0.474
			c-0.342-0.31-0.521-1.005-0.521-2.094v-0.45H75.74z M86.667,59.184c0.424,0.289,0.778,0.866,0.778,1.763
			c0,1.634-0.814,2.437-2.72,2.437H83.74V58.76C85.74,58.762,86.244,58.904,86.667,59.184z M81.58,56.043
			c-1.75,0-2.495-0.732-2.495-2.184c0-1.392,0.677-2.087,2.438-2.087l0.217-0.011v4.304C81.74,56.048,81.591,56.043,81.58,56.043z"
			/>
		<path fill="#FFFFFF" d="M31.736,57.347c-0.772-0.648-2.196-1.033-4.406-1.155l-0.59-0.028v-4.781h0.328
			c1.632,0,2.442,1.513,2.442,2.819l0.013,1.181h3.217v-1.757c0-1.722-0.514-2.903-1.33-3.538c-0.82-0.642-3.67-0.953-4.67-0.953
			v-1.752h-3v1.752c-1,0-3.499,0.328-4.353,0.997c-0.865,0.663-1.08,1.896-1.08,3.697c0,1.855,0.108,3.122,0.965,3.802
			c0.856,0.673,3.468,1.009,4.468,1.009v4.772l-0.011-0.012c-1.198,0-1.547-0.163-1.892-0.474c-0.346-0.31-0.098-1.005-0.098-2.094
			v-0.45h-3.388l-0.014,0.675c0,1.779,0.424,3.054,1.277,3.773c0.852,0.718,1.9,1.094,3.991,1.094l0.134,0.038v2.42h3v-2.42
			l0.541-0.018c2.102,0,3.542-0.374,4.384-1.12c0.845-0.756,1.249-2.054,1.249-3.915C32.918,59.184,32.51,57.99,31.736,57.347z
			 M23.74,56.064c0-0.017,0.009-0.023-0.008-0.023c-1.754,0-2.415-0.729-2.415-2.181c0-1.397,0.557-2.093,2.318-2.093l0.104-0.011
			V56.064z M27.028,63.384H26.74V58.76c1,0,2.16,0.15,2.584,0.428c0.421,0.29,0.601,0.857,0.601,1.755
			C29.927,62.578,28.94,63.384,27.028,63.384z"/>
		<path fill="#FFFFFF" d="M77.893,82.384c0.216-1,0.705-4,1.425-6H72.74v-39h21v26.811c2-0.414,3.676-0.636,5.461-0.636
			c1.812,0,3.539,0.229,5.539,0.655v-16.83h-5v-15h-91v15h-4v21h4v14H77.893z M41.74,37.384h25v39h-25V37.384z M14.74,37.384h22v39
			h-22V37.384z"/>
	</g>
	<g>
		<g>
			<path fill="#FFFFFF" d="M115.424,80.758h-1.354c-0.338,0-0.872-0.411-1.101-0.999c-0.079-0.208-0.165-0.416-0.256-0.618
				c-0.255-0.577-0.167-1.246,0.071-1.484l0.958-0.957c1.191-1.19,1.191-3.128,0.001-4.319l-1.602-1.6
				c-0.578-0.579-1.345-0.896-2.16-0.896s-1.583,0.317-2.161,0.896l-0.957,0.956c-0.139,0.14-0.422,0.227-0.737,0.227
				c-0.256,0-0.521-0.056-0.746-0.155c-0.203-0.089-0.411-0.176-0.617-0.256c-0.59-0.228-1.001-0.763-1.001-1.1v-1.355
				c0-1.684-1.37-3.054-3.054-3.054h-2.264c-1.686,0-3.055,1.37-3.055,3.054v1.355c0,0.337-0.41,0.871-1,1.1
				c-0.206,0.079-0.413,0.166-0.617,0.256c-0.226,0.1-0.492,0.154-0.747,0.154c-0.315,0-0.598-0.086-0.737-0.226l-0.958-0.957
				c-0.578-0.577-1.345-0.896-2.161-0.896s-1.582,0.318-2.159,0.896l-1.6,1.6c-1.19,1.19-1.19,3.129,0,4.318l0.958,0.958
				c0.237,0.238,0.326,0.907,0.07,1.485c-0.089,0.202-0.175,0.41-0.256,0.617c-0.228,0.588-0.761,0.999-1.1,0.999h-1.354
				c-1.685,0-3.055,1.37-3.055,3.055v2.264c0,1.684,1.371,3.055,3.055,3.055h1.354c0.338,0,0.872,0.41,1.1,0.999
				c0.081,0.206,0.166,0.413,0.256,0.616c0.255,0.578,0.167,1.247-0.071,1.485l-0.957,0.957c-1.191,1.191-1.191,3.129-0.001,4.32
				l1.601,1.602c0.577,0.578,1.345,0.896,2.16,0.896s1.582-0.317,2.16-0.896l0.957-0.958c0.142-0.142,0.417-0.227,0.737-0.227
				c0.256,0,0.521,0.055,0.748,0.156c0.199,0.089,0.407,0.174,0.617,0.255c0.589,0.229,0.999,0.763,0.999,1.101v1.354
				c0,1.684,1.37,3.054,3.055,3.054h2.265c1.683,0,3.054-1.369,3.054-3.054v-1.354c0-0.338,0.41-0.872,0.999-1.101
				c0.206-0.079,0.414-0.164,0.616-0.255c0.228-0.1,0.492-0.154,0.748-0.154c0.315,0,0.598,0.087,0.737,0.226l0.958,0.957
				c0.578,0.578,1.346,0.896,2.161,0.896c0.089,0,0.177-0.004,0.266-0.013c1.115-0.097,2.1-1.085,2.628-1.616l0.066-0.067
				l0.801-0.799c1.188-1.192,1.188-3.13,0.001-4.321l-0.959-0.958c-0.238-0.238-0.326-0.907-0.071-1.485
				c0.091-0.203,0.177-0.411,0.256-0.616c0.228-0.59,0.763-0.999,1.1-0.999h1.354c1.685,0,3.055-1.371,3.055-3.055v-2.264
				C118.478,82.128,117.108,80.758,115.424,80.758z M107.841,84.944c0,4.558-3.707,8.266-8.265,8.266s-8.266-3.708-8.266-8.266
				c0-4.557,3.708-8.266,8.266-8.266S107.841,80.388,107.841,84.944z"/>
		</g>
	</g>
</g>
</svg>
