^F:\WIGOS\SRC\WGC-REFACTOR\WIGOS SYSTEM\WGC\COMMON\LIB\COMMONBASE.LIB|F:\WIGOS\SRC\WGC-REFACTOR\WIGOS SYSTEM\WGC\COMMON\LIB\COMMONBASE.LIB|F:\WIGOS\SRC\WGC-REFACTOR\WIGOS SYSTEM\WGC\COMMON\LIB\COMMON_API.LIB|F:\WIGOS\SRC\WGC-REFACTOR\WIGOS SYSTEM\WGC\COMMON\LIB\COMMON_API.LIB|F:\WIGOS\SRC\WGC-REFACTOR\WIGOS SYSTEM\WGC\COMMON\LIB\PRIVATELOG.LIB|F:\WIGOS\SRC\WGC-REFACTOR\WIGOS SYSTEM\WGC\COMMON\LIB\PRIVATELOG.LIB|F:\WIGOS\SRC\WGC-REFACTOR\WIGOS SYSTEM\WGC\COMMON\LIB\QUEUE_API.LIB|F:\WIGOS\SRC\WGC-REFACTOR\WIGOS SYSTEM\WGC\COMMON\LIB\QUEUE_API.LIB|F:\WIGOS\SRC\WGC-REFACTOR\WIGOS SYSTEM\WGC\KERNEL\IPC_API\DEBUG\IPC_API.OBJ|F:\WIGOS\SRC\WGC-REFACTOR\WIGOS SYSTEM\WGC\KERNEL\IPC_API\DEBUG\IPC_API.RES|F:\WIGOS\SRC\WGC-REFACTOR\WIGOS SYSTEM\WGC\KERNEL\IPC_API\DEBUG\IPC_CONF.OBJ|F:\WIGOS\SRC\WGC-REFACTOR\WIGOS SYSTEM\WGC\KERNEL\IPC_API\DEBUG\IPC_MISC.OBJ|F:\WIGOS\SRC\WGC-REFACTOR\WIGOS SYSTEM\WGC\KERNEL\IPC_API\DEBUG\IPC_TCP.OBJ
C:\PROGRAM FILES (X86)\WINDOWS KITS\8.1\LIB\WINV6.3\UM\X86\WS2_32.LIB
C:\PROGRAM FILES (X86)\WINDOWS KITS\8.1\LIB\WINV6.3\UM\X86\KERNEL32.LIB
C:\PROGRAM FILES (X86)\WINDOWS KITS\8.1\LIB\WINV6.3\UM\X86\USER32.LIB
C:\PROGRAM FILES (X86)\WINDOWS KITS\8.1\LIB\WINV6.3\UM\X86\GDI32.LIB
C:\PROGRAM FILES (X86)\WINDOWS KITS\8.1\LIB\WINV6.3\UM\X86\WINSPOOL.LIB
C:\PROGRAM FILES (X86)\WINDOWS KITS\8.1\LIB\WINV6.3\UM\X86\COMDLG32.LIB
C:\PROGRAM FILES (X86)\WINDOWS KITS\8.1\LIB\WINV6.3\UM\X86\ADVAPI32.LIB
C:\PROGRAM FILES (X86)\WINDOWS KITS\8.1\LIB\WINV6.3\UM\X86\SHELL32.LIB
C:\PROGRAM FILES (X86)\WINDOWS KITS\8.1\LIB\WINV6.3\UM\X86\OLE32.LIB
C:\PROGRAM FILES (X86)\WINDOWS KITS\8.1\LIB\WINV6.3\UM\X86\OLEAUT32.LIB
C:\PROGRAM FILES (X86)\WINDOWS KITS\8.1\LIB\WINV6.3\UM\X86\UUID.LIB
C:\PROGRAM FILES (X86)\WINDOWS KITS\8.1\LIB\WINV6.3\UM\X86\ODBC32.LIB
C:\PROGRAM FILES (X86)\WINDOWS KITS\8.1\LIB\WINV6.3\UM\X86\ODBCCP32.LIB
F:\WIGOS\SRC\WGC-REFACTOR\WIGOS SYSTEM\WGC\KERNEL\IPC_API\DEBUG\IPC_API.RES
F:\WIGOS\SRC\WGC-REFACTOR\WIGOS SYSTEM\WGC\KERNEL\IPC_API\DEBUG\IPC_API.OBJ
F:\WIGOS\SRC\WGC-REFACTOR\WIGOS SYSTEM\WGC\KERNEL\IPC_API\DEBUG\IPC_CONF.OBJ
F:\WIGOS\SRC\WGC-REFACTOR\WIGOS SYSTEM\WGC\KERNEL\IPC_API\DEBUG\IPC_MISC.OBJ
F:\WIGOS\SRC\WGC-REFACTOR\WIGOS SYSTEM\WGC\KERNEL\IPC_API\DEBUG\IPC_TCP.OBJ
F:\WIGOS\SRC\WGC-REFACTOR\WIGOS SYSTEM\WGC\COMMON\LIB\COMMONBASE.LIB
F:\WIGOS\SRC\WGC-REFACTOR\WIGOS SYSTEM\WGC\COMMON\LIB\COMMON_API.LIB
F:\WIGOS\SRC\WGC-REFACTOR\WIGOS SYSTEM\WGC\COMMON\LIB\PRIVATELOG.LIB
F:\WIGOS\SRC\WGC-REFACTOR\WIGOS SYSTEM\WGC\COMMON\LIB\QUEUE_API.LIB
C:\WINDOWS\GLOBALIZATION\SORTING\SORTDEFAULT.NLS
C:\PROGRAM FILES (X86)\MICROSOFT VISUAL STUDIO 12.0\VC\LIB\MSVCRT.LIB
C:\PROGRAM FILES (X86)\MICROSOFT VISUAL STUDIO 12.0\VC\LIB\OLDNAMES.LIB
F:\WIGOS\SRC\WGC-REFACTOR\WIGOS SYSTEM\WGC\KERNEL\IPC_API\IPC_API.DEF
C:\WINDOWS\SYSTEM32\TZRES.DLL
C:\PROGRAM FILES (X86)\MICROSOFT VISUAL STUDIO 12.0\VC\BIN\1033\LINKUI.DLL
C:\PROGRAM FILES (X86)\WINDOWS KITS\8.1\BIN\X86\RC.EXE
C:\PROGRAM FILES (X86)\MICROSOFT VISUAL STUDIO 12.0\VC\BIN\CVTRES.EXE
