<?xml version="1.0" encoding="utf-8"?>
<!-- Generator: Adobe Illustrator 18.1.1, SVG Export Plug-In . SVG Version: 6.00 Build 0)  -->
<svg version="1.1"
	 id="svg3003" xmlns:cc="http://creativecommons.org/ns#" xmlns:svg="http://www.w3.org/2000/svg" xmlns:rdf="http://www.w3.org/1999/02/22-rdf-syntax-ns#" xmlns:sodipodi="http://sodipodi.sourceforge.net/DTD/sodipodi-0.dtd" xmlns:dc="http://purl.org/dc/elements/1.1/" xmlns:inkscape="http://www.inkscape.org/namespaces/inkscape" sodipodi:docname="07_firesource.svg" inkscape:version="0.48.5 r10040"
	 xmlns="http://www.w3.org/2000/svg" xmlns:xlink="http://www.w3.org/1999/xlink" x="0px" y="0px" viewBox="0 0 612 792"
	 enable-background="new 0 0 612 792" xml:space="preserve">
<path d="M161,181.2c-4.9-8.6-1.8-18.4,6.1-23.3c3.1-1.8,6.7-2.4,9.8-2.4c5.5,0.6,10.4,3.7,13.5,8.6l22.6,38.6l-30,17.1L161,181.2z
	 M451.7,181.2c4.9-8.6,1.8-19-6.7-23.3c-8.6-4.9-19-1.2-23.9,6.1l0,0l-22,38.6l30,17.1L451.7,181.2z M323.2,137.7
	c0-9.8-8-17.1-17.1-17.1c-9.8,0-17.7,7.3-17.7,17.1v44.7h34.9V137.7z M546.6,258.9c-3.1-4.9-8-8-13.5-8.6c-3.1,0-6.7,0-9.8,1.8
	l-38.6,22.6l17.1,30l39.2-22.6C548.4,277.9,551.5,267.5,546.6,258.9z M511.7,622.4h-13.5c1.2-1.8,1.8-4.3,1.8-6.7v-18.4
	c0-8.6-6.7-15.3-15.3-15.3h-11.6H140.8h-12.2c-8.6,0-15.3,6.7-15.3,15.3v18.4c0,2.4,0.6,4.9,1.8,6.7h-13.5
	c-8.6,0-15.3,6.7-15.3,15.3v18.4c0,8.6,6.7,15.3,15.3,15.3h410.7c8.6,0,15.3-6.7,15.3-15.3v-18.4C527,629.8,520.3,622.4,511.7,622.4
	z M467,565.5H145.7V404v-2.4V396c0-88.7,72.2-160.3,161-160.3l0,0c88.7,0,161,71.6,161,160.3v4.9v2.4v162.2H467z M282.8,424.8
	c0-45.9-37.3-83.2-83.2-83.2v167.1C245.5,508.6,282.8,471.3,282.8,424.8z M412.5,341.5c-45.9,0-83.2,37.3-83.2,83.2
	s37.3,83.2,83.2,83.2V341.5z M128,275.4l-39.2-22.6c-1.8-1.2-4.3-1.8-6.1-1.8c-6.7-0.6-13.5,2.4-17.1,8.6
	c-4.9,8.6-2.4,18.4,6.1,23.3l39.2,22.6L128,275.4z"/>
</svg>
