<?xml version="1.0" encoding="utf-8"?>
<!-- Generator: Adobe Illustrator 19.0.0, SVG Export Plug-In . SVG Version: 6.00 Build 0)  -->
<svg version="1.1" id="Layer_1" xmlns="http://www.w3.org/2000/svg" xmlns:xlink="http://www.w3.org/1999/xlink" x="0px" y="0px"
	 viewBox="0 0 40 40" style="enable-background:new 0 0 40 40;" xml:space="preserve">
<style type="text/css">
	.st0{fill-rule:evenodd;clip-rule:evenodd;fill:#FFFFFF;}
</style>
<path class="st0" d="M20,32c1.1,0,2-0.9,2-2c0-1.1-0.9-2-2-2s-2,0.9-2,2C18,31.1,18.9,32,20,32 M26,4H14c-2.2,0-4,1.8-4,4v2v2v12v2
	v6c0,2.2,1.8,4,4,4h12c2.2,0,4-1.8,4-4v-6v-2V12v-2V8C30,5.8,28.2,4,26,4 M28,32c0,1.1-0.9,2-2,2H14c-1.1,0-2-0.9-2-2v-6h16V32z
	 M28,24H12V12h16V24z M28,10H12V8c0-1.1,0.9-2,2-2h12c1.1,0,2,0.9,2,2V10z"/>
</svg>
