^F:\Wigos\src\wgc-refactor\Wigos System\WGC\Kernel\CommonData\CommonData.vcxproj
F:\Wigos\src\wgc-refactor\Wigos System\WGC\common\Lib\CommonData.lib
F:\Wigos\src\wgc-refactor\Wigos System\WGC\common\Lib\CommonData.exp
