^F:\WIGOS\SRC\WGC-REFACTOR\WIGOS SYSTEM\WGC\KERNEL\COMMONDATA\DEBUG\COMMONDATA.RES|F:\WIGOS\SRC\WGC-REFACTOR\WIGOS SYSTEM\WGC\KERNEL\COMMONDATA\DEBUG\COMMONDATAAUDITOR.OBJ|F:\WIGOS\SRC\WGC-REFACTOR\WIGOS SYSTEM\WGC\KERNEL\COMMONDATA\DEBUG\COMMONDATADEVICES.OBJ|F:\WIGOS\SRC\WGC-REFACTOR\WIGOS SYSTEM\WGC\KERNEL\COMMONDATA\DEBUG\COMMONDATAGENERALPARAMS.OBJ|F:\WIGOS\SRC\WGC-REFACTOR\WIGOS SYSTEM\WGC\KERNEL\COMMONDATA\DEBUG\COMMONDATAINVOICE.OBJ|F:\WIGOS\SRC\WGC-REFACTOR\WIGOS SYSTEM\WGC\KERNEL\COMMONDATA\DEBUG\COMMONDATAIPC.OBJ|F:\WIGOS\SRC\WGC-REFACTOR\WIGOS SYSTEM\WGC\KERNEL\COMMONDATA\DEBUG\COMMONDATALAUNCHBAR.OBJ|F:\WIGOS\SRC\WGC-REFACTOR\WIGOS SYSTEM\WGC\KERNEL\COMMONDATA\DEBUG\COMMONDATAREGISTRY.OBJ|F:\WIGOS\SRC\WGC-REFACTOR\WIGOS SYSTEM\WGC\KERNEL\COMMONDATA\DEBUG\COMMONDATAREGOPT.OBJ|F:\WIGOS\SRC\WGC-REFACTOR\WIGOS SYSTEM\WGC\KERNEL\COMMONDATA\DEBUG\COMMONDATATRX.OBJ|F:\WIGOS\SRC\WGC-REFACTOR\WIGOS SYSTEM\WGC\KERNEL\COMMONDATA\DEBUG\COMMONDATECODE.OBJ
C:\PROGRAM FILES (X86)\WINDOWS KITS\8.1\LIB\WINV6.3\UM\X86\KERNEL32.LIB
C:\PROGRAM FILES (X86)\WINDOWS KITS\8.1\LIB\WINV6.3\UM\X86\USER32.LIB
C:\PROGRAM FILES (X86)\WINDOWS KITS\8.1\LIB\WINV6.3\UM\X86\GDI32.LIB
C:\PROGRAM FILES (X86)\WINDOWS KITS\8.1\LIB\WINV6.3\UM\X86\WINSPOOL.LIB
C:\PROGRAM FILES (X86)\WINDOWS KITS\8.1\LIB\WINV6.3\UM\X86\COMDLG32.LIB
C:\PROGRAM FILES (X86)\WINDOWS KITS\8.1\LIB\WINV6.3\UM\X86\ADVAPI32.LIB
C:\PROGRAM FILES (X86)\WINDOWS KITS\8.1\LIB\WINV6.3\UM\X86\SHELL32.LIB
C:\PROGRAM FILES (X86)\WINDOWS KITS\8.1\LIB\WINV6.3\UM\X86\OLE32.LIB
C:\PROGRAM FILES (X86)\WINDOWS KITS\8.1\LIB\WINV6.3\UM\X86\OLEAUT32.LIB
C:\PROGRAM FILES (X86)\WINDOWS KITS\8.1\LIB\WINV6.3\UM\X86\UUID.LIB
C:\PROGRAM FILES (X86)\WINDOWS KITS\8.1\LIB\WINV6.3\UM\X86\ODBC32.LIB
C:\PROGRAM FILES (X86)\WINDOWS KITS\8.1\LIB\WINV6.3\UM\X86\ODBCCP32.LIB
F:\WIGOS\SRC\WGC-REFACTOR\WIGOS SYSTEM\WGC\KERNEL\COMMONDATA\DEBUG\COMMONDATA.RES
F:\WIGOS\SRC\WGC-REFACTOR\WIGOS SYSTEM\WGC\KERNEL\COMMONDATA\DEBUG\COMMONDATAAUDITOR.OBJ
F:\WIGOS\SRC\WGC-REFACTOR\WIGOS SYSTEM\WGC\KERNEL\COMMONDATA\DEBUG\COMMONDATADEVICES.OBJ
F:\WIGOS\SRC\WGC-REFACTOR\WIGOS SYSTEM\WGC\KERNEL\COMMONDATA\DEBUG\COMMONDATAGENERALPARAMS.OBJ
F:\WIGOS\SRC\WGC-REFACTOR\WIGOS SYSTEM\WGC\KERNEL\COMMONDATA\DEBUG\COMMONDATAINVOICE.OBJ
F:\WIGOS\SRC\WGC-REFACTOR\WIGOS SYSTEM\WGC\KERNEL\COMMONDATA\DEBUG\COMMONDATAIPC.OBJ
F:\WIGOS\SRC\WGC-REFACTOR\WIGOS SYSTEM\WGC\KERNEL\COMMONDATA\DEBUG\COMMONDATALAUNCHBAR.OBJ
F:\WIGOS\SRC\WGC-REFACTOR\WIGOS SYSTEM\WGC\KERNEL\COMMONDATA\DEBUG\COMMONDATAREGISTRY.OBJ
F:\WIGOS\SRC\WGC-REFACTOR\WIGOS SYSTEM\WGC\KERNEL\COMMONDATA\DEBUG\COMMONDATAREGOPT.OBJ
F:\WIGOS\SRC\WGC-REFACTOR\WIGOS SYSTEM\WGC\KERNEL\COMMONDATA\DEBUG\COMMONDATATRX.OBJ
F:\WIGOS\SRC\WGC-REFACTOR\WIGOS SYSTEM\WGC\KERNEL\COMMONDATA\DEBUG\COMMONDATECODE.OBJ
C:\WINDOWS\GLOBALIZATION\SORTING\SORTDEFAULT.NLS
C:\PROGRAM FILES (X86)\MICROSOFT VISUAL STUDIO 12.0\VC\LIB\MSVCRT.LIB
C:\PROGRAM FILES (X86)\MICROSOFT VISUAL STUDIO 12.0\VC\LIB\OLDNAMES.LIB
F:\WIGOS\SRC\WGC-REFACTOR\WIGOS SYSTEM\WGC\KERNEL\COMMONDATA\COMMONDATA.DEF
C:\WINDOWS\SYSTEM32\TZRES.DLL
C:\PROGRAM FILES (X86)\MICROSOFT VISUAL STUDIO 12.0\VC\BIN\1033\LINKUI.DLL
C:\PROGRAM FILES (X86)\WINDOWS KITS\8.1\BIN\X86\RC.EXE
C:\PROGRAM FILES (X86)\MICROSOFT VISUAL STUDIO 12.0\VC\BIN\CVTRES.EXE
